enxCPQ__Location_Details__c,Name,ENXCPQ__TECH_EXTERNAL_ID__C,ENXCPQ__TECHNOLOGY__C,ENXCPQ__LOCATION__R.ENXCPQ__TECH_EXTERNAL_ID__C
Atman Data Center Warsaw-1,Atman Data Center Warsaw-1,NOD00UGBVN2L4NV,Fiber;Wireless - Fixed;Wireless - Mobile;Wireless - Satellite,LOC004HH2AFPIIK
Data Center Varion,Data Center Varion,NOD004R9QNH59AO,Fiber;Wireless - Fixed;Wireless - Mobile;Wireless - Satellite,LOC00SFUWDXVGUN
NWI Datacenter Brasília SIG,NWI Datacenter Brasília SIG,NOD00I7SJS604N4,Fiber;Wireless - Fixed;Wireless - Mobile;Wireless - Satellite,LOC00XBYPFJFJND
Telehouse 2 - access point,Telehouse 2 - access point,NOD00KQXOX8KLRE,Fiber;Wireless - Fixed;Wireless - Mobile;Wireless - Satellite,LOC00MN69DX3ZPY
Equinix FR1,Equinix FR1,NOD00X8C7QUR9EU,Fiber;Wireless - Fixed;Wireless - Mobile;Wireless - Satellite,LOC007GAKR1DND6
Global Crossing Frankfurt - 3,Global Crossing Frankfurt - 3,NOD00KD014YJW9U,Fiber;Wireless - Fixed;Wireless - Mobile;Wireless - Satellite,LOC00DD8FL3FZ8S
Equinix Singapore (SG1),Equinix Singapore (SG1),NOD00PHN11BQVH6,Fiber;Wireless - Fixed;Wireless - Mobile;Wireless - Satellite,LOC006V0J48MVVY
Interxion Stockholm (STO3),Interxion Stockholm (STO3),NOD00F5J7XR0WNT,Fiber;Wireless - Fixed;Wireless - Mobile;Wireless - Satellite,LOC00BRJC27P12F
Interxion (Switzerland) AG,Interxion (Switzerland) AG,NOD00A1PI9SRONK,Fiber;Wireless - Fixed;Wireless - Mobile;Wireless - Satellite,LOC00XD5H809AC4
CarrierColo Berlin Luetzow - 1,CarrierColo Berlin Luetzow - 1,NOD00UB6FN60WNB,Fiber;Wireless - Fixed;Wireless - Mobile;Wireless - Satellite,LOC00YA4NHTD6NG
Interxion Düsseldorf - 1,Interxion Düsseldorf - 1,NOD00673JGNWBNZ,Fiber;Wireless - Fixed;Wireless - Mobile;Wireless - Satellite,LOC00IUY9ZRWD1Q
Equinix FR3,Equinix FR3,NOD00IN8SJ4T1BX,Fiber;Wireless - Fixed;Wireless - Mobile;Wireless - Satellite,LOC007GAKR1DND6
Global Crossing Frankfurt - 1,Global Crossing Frankfurt - 1,NOD00KPYV3ZN5OZ,Fiber;Wireless - Fixed;Wireless - Mobile;Wireless - Satellite,LOC00DD8FL3FZ8S
MEGA-i (iAdvantage Hong Kong) - 1,MEGA-i (iAdvantage Hong Kong) - 1,NOD00D0DDULM40G,Fiber;Wireless - Fixed;Wireless - Mobile;Wireless - Satellite,LOC00C0ZV59EBWQ
Equinix FR2,Equinix FR2,NOD002Q4LXU1AA1,Fiber;Wireless - Fixed;Wireless - Mobile;Wireless - Satellite,LOC007GAKR1DND6
newsnet ag Data Center,newsnet ag Data Center,NOD00P1C3RKU6BZ,Fiber,LOC00ZA8BK9ROSE
MCC Mitaka,MCC Mitaka,NOD00VYRE4Q27HA,Fiber,LOC007O0FRB9BPK
CoreSite New York (NY1),CoreSite New York (NY1),NOD00VJAB06NSPI,Fiber,LOC00HMDWPVTECG
Equinix MI2,Equinix MI2,NOD00J49Y67T36I,Fiber,LOC006LAIV7RCYM
Datacentrum TTC DC1,Datacentrum TTC DC1,NOD00IYSU1A2TGE,Fiber,LOC00NAHM6UOFL0
Digital Realty Data Center - 3,Digital Realty Data Center - 3,NOD00XQSKT7ADLV,Fiber;Coax/HFC;Copper,LOC004UKKU7R2F2
Equinix Data Center - 1,Equinix Data Center - 1,NOD00ARYZ83ZDVI,Fiber;Coax/HFC;Copper,LOC006518O33CS2
Equinix Data Center - 2,Equinix Data Center - 2,NOD00OJALG63RI1,Fiber;Coax/HFC;Copper,LOC006518O33CS2
IWB Basel,IWB Basel,NOD00JQIXHSZ6OF,Fiber;Coax/HFC;Copper,LOC00OP9NNYBCH7
Core-Backbone - 2,Core-Backbone - 2,NOD00N30OC5SMFR,Fiber;Coax/HFC;Copper,LOC00LY57GBOB4B
Interxion Stockholm (STO1),Interxion Stockholm (STO1),NOD00GL5N0UBGGY,Fiber;Coax/HFC;Copper,LOC00BRJC27P12F
SunnyVision Data Center,SunnyVision Data Center,NOD00YXLHDRCDL5,Fiber;Coax/HFC;Copper,LOC00KS66RWQTMK
Equinix SV8,Equinix SV8,NOD00XRAXCPKV7R,Fiber;Coax/HFC;Copper,LOC00FRKU4VPHJZ
KIRZ Data Center,KIRZ Data Center,NOD00P04L9XT4JZ,Fiber;Coax/HFC;Copper,LOC00FIMKNZOOR2
True IDC - Midtown Ratchada,True IDC - Midtown Ratchada,NOD005JWBHKJGBF,Fiber;Coax/HFC;Copper,LOC00LB75UVLDOQ
MEEZA (M-VAULT 3),MEEZA (M-VAULT 3),NOD00YMIF2OGB62,Fiber;Coax/HFC;Copper,LOC00OCJOGLAKEX
Vox DataPro Johannesburg,Vox DataPro Johannesburg,NOD00C79V6ZYWL8,Fiber;Coax/HFC;Copper,LOC00VUOM8Y6NNV
East Africa Data Center,East Africa Data Center,NOD00R13JQDKVVB,Fiber;Coax/HFC;Copper,LOC00Q6J8BYWDV7
Polcom Data Center Skawina,Polcom Data Center Skawina,NOD00GJYLJZH2JC,Fiber;Coax/HFC;Copper,LOC00OMU6N4X7A2
Gulf Data Hub,Gulf Data Hub,NOD00H5X5FDW2KJ,Fiber;Coax/HFC;Copper,LOC002EFBPBLZIK
"Selectel ""Dubrovka""","Selectel ""Dubrovka""",NOD00A042VUC4QI,Fiber;Coax/HFC;Copper,LOC00SJ67W3DI5N
Cyxtera - Los Angeles LAX2-A,Cyxtera - Los Angeles LAX2-A,NOD00HU5FF8BWT3,Fiber;Coax/HFC;Copper,LOC0011N26ES8NZ
Louhi Datacenter Espoo,Louhi Datacenter Espoo,NOD00E74JEPD73P,Fiber,LOC00RMAMG2HIDB
DC Digitalis,DC Digitalis,NOD00I7LP1JY2LW,Fiber,LOC00ZPV0EXR4DZ
True IDC - East Bangna,True IDC - East Bangna,NOD00CP67ALW6UJ,Fiber,LOC007BK8BDSXHU
Digital Osaka 1,Digital Osaka 1,NOD00JPSMAY270J,Fiber,LOC006OSWQPYZ4N
INAP Japan Osaka DC,INAP Japan Osaka DC,NOD00PXZJVYPT3V,Fiber,LOC00EA9I8UVPS8
India Bangalore 2 Data Center,India Bangalore 2 Data Center,NOD00UPQYQA9LOW,Fiber,LOC00V92MREI1R5
Data House,Data House,NOD00SF1RMO3T1J,Fiber,LOC00F9PPHEI61Q
Nebraska Data Centers,Nebraska Data Centers,NOD00RPHO14U0BQ,Fiber,LOC00QD8GMZJ7GB
Government Integrated Data Center,Government Integrated Data Center,NOD00T13C9EEARI,Other;Copper,LOC004OB22UM1MM
Latechco AP,Latechco AP,NOD00U40CIRE8R4,Other;Copper,LOC00BKEZE5YS5M
InterXion - 1,InterXion - 1,NOD00J3TGB5SF91,Other;Copper,LOC0043K60CNYK5
Equinix Paris PA7,Equinix Paris PA7,NOD003M74XZD1F1,Other;Copper,LOC00Y0E3FKXQKD
ipNX Hosting Service,ipNX Hosting Service,NOD00CA8JFOIR9O,Other;Copper,LOC001E56PM5C3O
Cologix Data Center (MTL 6),Cologix Data Center (MTL 6),NOD00M4GYCT6U53,Fiber,LOC00X4K1O00HK8
Equinix WA2,Equinix WA2,NOD003UOW0N8EWO,Fiber,LOC00SFUWDXVGUN
MEEZA (M-VAULT 2),MEEZA (M-VAULT 2),NOD00TQUPS4JLBY,Fiber,LOC008B4R4NV0N3
Moro Hub,Moro Hub,NOD000U7Y6Q3KRW,Fiber,LOC0052D5SLKYU2
Telehouse - London (Docklands North),Telehouse - London (Docklands North),NOD00K9XWNIRKH7,Fiber,LOC00O8CERWAPKA
Telehouse - London (Docklands West),Telehouse - London (Docklands West),NOD00OABN4EAKCZ,Fiber,LOC00O8CERWAPKA
Techno-Z - 1,Techno-Z - 1,NOD00YV0TWJNPF9,Fiber,LOC00YSI7KMTEKY
IPXON Networks DC MDF,IPXON Networks DC MDF,NOD0001KOI4QNS4,Fiber,LOC00OTPE3ZYB4U
NeuStyle - Wat1,NeuStyle - Wat1,NOD00HU6YJKNHVI,Fiber,LOC002OFRM2Q6GR
DC Jarosova,DC Jarosova,NOD006774XHB8G6,Fiber,LOC00OZD8GWO1CK
Interxion Madrid (MAD1),Interxion Madrid (MAD1),NOD00JME9XL365N,Fiber,LOC00FMHI1J0PGA
Djibouti Data Center,Djibouti Data Center,NOD004CY779I83G,Fiber,LOC00LISVSON6FJ
Neolo.com DC,Neolo.com DC,NOD00TOL9OE8D9X,Fiber,LOC00E1L4DYIDM7
InterXion - 2,InterXion - 2,NOD00VPK6QZN9BA,Fiber,LOC0043K60CNYK5
Atman Data Center Warsaw-2,Atman Data Center Warsaw-2,NOD00TGULLJIQ52,Fiber,LOC00QJW9GJDI4F
Legion BSAS,Legion BSAS,NOD00DYK3LFH938,Fiber,LOC00Z6IDJC4YFK
Beijing IDC-1,Beijing IDC-1,NOD00GD0GRY9BGK,Fiber,LOC00DHFWGF7637
Equinix London Slough (LD5),Equinix London Slough (LD5),NOD00JSJTFNKTQ6,Fiber,LOC006F00RCHTQM
KIO Networks,KIO Networks,NOD00G2BQAQ9KL1,Fiber,LOC002LZOA7UDWQ
Digital Realty NYC (111 8th Ave),Digital Realty NYC (111 8th Ave),NOD00P7BESPXUCY,Fiber,LOC00KIUIH3AJC7
NEXTDC - C1,NEXTDC - C1,NOD00DEU0K6UUEC,Fiber,LOC001ZQRCRJEFV
Cyxtera - NY/NJ EWR4,Cyxtera - NY/NJ EWR4,NOD00DAG5NXNTF6,Fiber,LOC00PYJ6B8SGTP
TCCT Bangna Data Center (BNDC),TCCT Bangna Data Center (BNDC),NOD009Q25PGQPOO,Fiber,LOC00FIMKNZOOR2
Datacentrum TTC DC2,Datacentrum TTC DC2,NOD00IWHB86XQLS,Fiber,LOC00NAHM6UOFL0
Interxion Düsseldorf - 2,Interxion Düsseldorf - 2,NOD00S0TCT458BO,Fiber,LOC00IUY9ZRWD1Q
AT&T 3175 Spring,AT&T 3175 Spring,NOD00GDU8A6Y2I5,Fiber,LOC00SCQPXOBS7I
Alienor.NET,Alienor.NET,NOD001MP3BAHCMV,Fiber,LOC003ICSTIUP6G
LIM DC,LIM DC,NOD0007F2JPG740,Fiber,LOC000EFDTA43RE
SKYONLINE,SKYONLINE,NOD00ZQ8IU4EFD1,Fiber,LOC00H1IFTF4OX6
Data Center GVT Rio de Janeiro,Data Center GVT Rio de Janeiro,NOD0002SYFPQHPF,Fiber,LOC00XPJEF6W38G
MEEZA (M-VAULT 1),MEEZA (M-VAULT 1),NOD008ISTLLUPAG,Fiber,LOC00OCJOGLAKEX
MEGA-i (iAdvantage Hong Kong) - 3,MEGA-i (iAdvantage Hong Kong) - 3,NOD009UPKAE0UO9,Fiber,LOC00C0ZV59EBWQ
Itconic - Madrid 2,Itconic - Madrid 2,NOD00R12JEED507,Fiber,LOC0026ZFXKX1X8
Interxion Madrid (MAD2),Interxion Madrid (MAD2),NOD003GJV3O2GOV,Wireless - Fixed;Wireless - Satellite,LOC00FMHI1J0PGA
High Technology Technopark IT-park,High Technology Technopark IT-park,NOD001TTT77811I,Wireless - Fixed;Wireless - Satellite,LOC00SQIYTSVM56
TierPoint Omaha-Bellevue,TierPoint Omaha-Bellevue,NOD008CH3YRAHGN,Wireless - Fixed;Wireless - Satellite,LOC009XX4831UWD
Hetzner Online HEL1,Hetzner Online HEL1,NOD001963X656C3,Wireless - Fixed;Wireless - Satellite,LOC008YPL003ZRV
Hetzner Online HEL3,Hetzner Online HEL3,NOD001KMQXTBAYF,Wireless - Fixed;Wireless - Satellite,LOC008YPL003ZRV
Equinix HK1 - 2,Equinix HK1 - 2,NOD00O1HSFSW2VP,Wireless - Fixed;Wireless - Satellite,LOC00WOYN7I1H1E
Interxion Marseille (MRS1),Interxion Marseille (MRS1),NOD00I2DS7K3PA9,Wireless - Fixed;Wireless - Satellite,LOC001GOTS9JM6M
CarrierColo Berlin Luetzow - 3,CarrierColo Berlin Luetzow - 3,NOD00LO6Z9DUD4K,Wireless - Fixed;Wireless - Satellite,LOC00YA4NHTD6NG
Dataplace Rotterdam - 2,Dataplace Rotterdam - 2,NOD004LK4CTHW69,Wireless - Fixed;Wireless - Satellite,LOC002JK1BWOUNU
Comarch Data Center,Comarch Data Center,NOD002D26FUSISH,Wireless - Fixed;Wireless - Satellite,LOC00FOH9Q5M98R
DataCenter PPNT,DataCenter PPNT,NOD00UPLP1NMMCJ,Wireless - Fixed;Wireless - Satellite,LOC00GKTBYJVCB2
Pacnet Sydney,Pacnet Sydney,NOD00FFHGAOJ15Y,Wireless - Fixed;Wireless - Satellite,LOC003NWTTPDN3Q
"Selectel ""Tsvetochnaya""","Selectel ""Tsvetochnaya""",NOD00K7RGERLQ9M,Wireless - Fixed;Wireless - Satellite,LOC00JZIFL49G9W
TELEHOUSE Los Angeles Center,TELEHOUSE Los Angeles Center,NOD00QQHIM6X1L2,Fiber,LOC004CQ2EPKNI8
Hivelocity - LA1,Hivelocity - LA1,NOD00TE4VN9IMMO,Fiber,LOC00V6AK6B0ZHO
iseek Data Centre - Sydney,iseek Data Centre - Sydney,NOD00ZEORHZ701R,Fiber,LOC00M40JB0HCLC
Telehouse 2,Telehouse 2,NOD008ODGU3U6WM,Fiber,LOC00MN69DX3ZPY
Global Crossing Frankfurt - 2,Global Crossing Frankfurt - 2,NOD00RGR7P49DML,Fiber,LOC00DD8FL3FZ8S
Equinix Singapore (SG3),Equinix Singapore (SG3),NOD00UG50271L95,Fiber,LOC00RWA81C4DQ1
Interxion Stockholm (STO2),Interxion Stockholm (STO2),NOD007493P413S9,Fiber,LOC00BRJC27P12F
Vodacom Johannesburg,Vodacom Johannesburg,NOD00LJ85J84DVK,Fiber,LOC006L5O9R5DM2
TE-Data data center,TE-Data data center,NOD00M3YTRZ0O30,Fiber,LOC00CVXAHVO3VG
SITELPOP 1,SITELPOP 1,NOD00YXMAC8IMOL,Fiber,LOC008A6A82GI97
Neutral Data Center,Neutral Data Center,NOD00AIVC0KXWFP,Fiber,LOC00P9S24J1YQA
itelligence data center,itelligence data center,NOD00I59AY85TIE,Fiber,LOC008GJ0XDLXJX
Beijing China Unicom,Beijing China Unicom,NOD00KPPCBO5Z6K,Fiber,LOC00ZDLXKD282Q
Netcenter Paris,Netcenter Paris,NOD001R4G0QG32V,Fiber,LOC00KIUYTK1VMN
Sify Rabale,Sify Rabale,NOD006AR6A1GYH3,Fiber,LOC00X0Y1EOZ1N0
"DEAC ""Riga""","DEAC ""Riga""",NOD00AMMS36YO7Q,Fiber,LOC002R5126BXQF
Interxion Danmark ApS - 1,Interxion Danmark ApS - 1,NOD00RVJC4QC67N,Fiber,LOC00TOPN6E5F7O
Kylos DC,Kylos DC,NOD00JXELZESVVM,Fiber,LOC00I86B2QH5ZM
DataHouse.PL,DataHouse.PL,NOD00U8STJDB2R5,Fiber,LOC00ROCXRLAWP2
Talex Data Center,Talex Data Center,NOD0032DFCUVGDB,Fiber,LOC00575H1PF85B
Connected,Connected,NOD003LPTJKFGGP,Fiber,LOC003X9H92PO3O
Beijing ETDA,Beijing ETDA,NOD000J9OC9OQYO,Fiber,LOC00R5K8DSGVW0
Digital Realty Av. Cel. Phidias Tavora,Digital Realty Av. Cel. Phidias Tavora,NOD00XO2526T61A,Fiber,LOC0039DFTSC1S6
Techno-Z - 2,Techno-Z - 2,NOD00228E69RYHV,Fiber,LOC00YSI7KMTEKY
Techno-Z - 3,Techno-Z - 3,NOD00NJ92JX0J8Z,Fiber,LOC00YSI7KMTEKY
Cyxtera - Tokyo HND1,Cyxtera - Tokyo HND1,NOD00FFZETBY5Y3,Fiber,LOC00OBUV9FWYG1
Dataplace Rotterdam - 1,Dataplace Rotterdam - 1,NOD00MVM2T4JSKM,Fiber,LOC002JK1BWOUNU
Wrocław Tower - 4,Wrocław Tower - 4,NOD00L01V8XAR37,Fiber,LOC00Z8VSEEHDCN
Lauschied Tower - 1,Lauschied Tower - 1,NOD009V096RFPKT,Fiber,LOC0046550J070U
Sky Tower - 1,Sky Tower - 1,NOD0015O1BCWKN8,Fiber,LOC00Z8PBLEHTKW
Marseille Tower,Marseille Tower - 4,NOD0026CY0BMJBJ,Fiber,LOC00BCPXDN1UY1
Hong Kong Tower - 2,Hong Kong Tower 2,NOD0046K2TW9J2L,Fiber,LOC00GWL7A4OE2Q
Moscow Tower - 2 floor 2,Moscow Tower - 2,NOD008KGHCNZ0PY,Fiber,LOC00H1G7FONU28
Berlin Tower - 1,Berlin Tower - 1,NOD00KESXTN7GV2,Fiber,LOC0062OKW5I2XK
Kłodzka Tower - 1,Kłodzka Tower - 1,NOD00UCWYUYBAZZ,Fiber,LOC00F6R09SWW7U
Atlas Tower – 6,Atlas Tower - 6,NOD00L3RWY3B00X,Fiber,LOC00ZASEJCQKPS
Kraków  Armii Krajowej Center – 5,Kraków Tower - 5,NOD008HQ4ZAM7JQ,Fiber,LOC00AR1ADOBAOQ
Moscow Tower - 1 floor 1,Moscow Tower - 1,NOD00JUD4DK01VC,Fiber,LOC00H1G7FONU28
New York Tower - 2,New York Tower 2,NOD00GOGVT8J42M,Fiber,LOC00H3X2PDRCJO
Hong Kong Tower - 1,Hong Kong Tower,NOD00Z5JAEF2DIX,Fiber,LOC00GWL7A4OE2Q
Sembach Tower - 1,Sembach Tower - 1,NOD001URH2HX68H,Fiber,LOC00T6L4ELAJ40
Kraków  Armii Krajowej Center – 2,Kraków Tower - 2,NOD00FCV1MRQ0SA,Fiber,LOC00AR1ADOBAOQ
Wrocław Tower - 1,Wrocław Tower - 1,NOD00VFZGZ9PKUG,Fiber,LOC00Z8VSEEHDCN
Atlas Tower - 1,Atlas Tower - 1,NOD004E7ZRID2OT,Fiber,LOC00ZASEJCQKPS
Sky Tower - 3 – Connect Room,Sky Tower - 3,NOD00SY0CD2QYHF,Fiber,LOC00Z8PBLEHTKW
Chicago Denter - 2,Chicago Tower - 2,NOD00GRG0QZ1EFI,Fiber,LOC00ZLB5Z96XD3
Marseille Center – 1,Marseille Tower - 2,NOD001GM67TLO3I,Fiber,LOC00BCPXDN1UY1
Wrocław Tower – 3,Wrocław Tower - 3,NOD00D790ORO7GY,Fiber,LOC00Z8VSEEHDCN
Atlas Tower - 5 - Connect Room,Atlas Tower - 5,NOD00BVN970DC9A,Fiber,LOC00ZASEJCQKPS
Marseille Paradis – 3,Marseille Tower - 3,NOD00P2DBKMLRIO,Fiber,LOC00BCPXDN1UY1
Kraków  Armii Krajowej Center - 3,Kraków Tower - 3,NOD00C6Z6BYM9RY,Fiber,LOC00AR1ADOBAOQ
Wrocław Tower – 5,Wrocław Tower - 5,NOD00AM3W9EYIYY,Fiber,LOC00Z8VSEEHDCN
Kłodzka Tower - 2,Kłodzka Tower - 2,NOD005JKRRHTYZG,Fiber,LOC00F6R09SWW7U
Moscow – Tower - Connect Room,Moscow – Tower - 2,NOD00SVF0WYRFZJ,Fiber,LOC00QBV8O77GAV
Chicago Tower - 1,Chicago Tower - 1,NOD005XMGHXCE3N,Fiber,LOC00ZLB5Z96XD3
Wrocław Tower – 2,Wrocław Tower - 2,NOD00X0UUZ3Q6KT,Fiber,LOC00Z8VSEEHDCN
Wrocław Tower – 6,Wrocław Tower - 6,NOD007JJIK305RB,Fiber,LOC00Z8VSEEHDCN
Atlas Tower - 4 – Enxoo floor,Atlas Tower - 4,NOD00094BIIVLDG,Fiber,LOC00ZASEJCQKPS
Kraków Tower – 4,Kraków Tower - 4,NOD00IQK14CF5ZE,Fiber,LOC00AR1ADOBAOQ
New York Tower – 1,New York Tower 1,NOD00Z1FUEQSPVG,Fiber,LOC00H3X2PDRCJO
Kraków Tower – 6,Kraków Tower - 6,NOD00NQ9CR7DAJU,Fiber,LOC00AR1ADOBAOQ
Sky Tower – 2,Sky Tower - 2,NOD0017WPWOERC2,Fiber,LOC00Z8PBLEHTKW
Marseille Paradis – 1,Marseille Tower - 5,NOD005KSZGS5JL6,Fiber,LOC00BCPXDN1UY1
Marseille Paradis – 2,Marseille Tower - 6,NOD00ONJZ3NPJOR,Fiber,LOC00BCPXDN1UY1
Wrocław Tower – 7,Wrocław Tower - 7,NOD00Z0RG5QOXMJ,Fiber,LOC00Z8VSEEHDCN
Lauschied Tower - 2,Lauschied Tower - 2,NOD00WHTMPG6AMX,Fiber,LOC0046550J070U
Atlas Tower - 2 - Headquarter,Atlas Tower - 2,NOD00E1UCCIRDEY,Fiber,LOC00ZASEJCQKPS
Atlas Tower – 3,Atlas Tower - 3,NOD00KK5GOLEOTY,Fiber,LOC00ZASEJCQKPS
Eiffel Tower - 1,Eiffel Tower - 1,NOD00752IPPY9BW,Fiber,LOC003ALUX7QQ1R
Eiffel Tower - 2 Last Floor,Eiffel Tower - 2,NOD00I46WDG6A05,Fiber,LOC003ALUX7QQ1R
Sembach Center – 2,Sembach Tower - 2,NOD00I5YYW5YS46,Fiber,LOC00T6L4ELAJ40
Berlin Tower - 2 - Capitol,Berlin Tower - 2,NOD00075BB8ZHJX,Fiber,LOC0062OKW5I2XK
Atlas Tower - 7 – Hub,Atlas Tower - 7,NOD00T04EQJG4DT,Fiber,LOC00ZASEJCQKPS
Moscow – Tower - 1,Moscow – Tower - 1,NOD00RP5ZCI180J,Fiber,LOC00QBV8O77GAV
Marseille Center – 1,Marseille Tower - 1,NOD00ONK8L5XGTM,Fiber,LOC00BCPXDN1UY1
Kraków Tower - 1,Kraków Tower - 1,NOD00BBNIDJCGI9,Fiber,LOC00AR1ADOBAOQ
Tower - 2 - Trzebnicka,Tower - 2 - Trzebnicka,NOD00TFMHE0D9EJ,Fiber,LOC00FW8LNXUB5S
NEXTDC - M1,NEXTDC - M1,NOD00UUGVDZ5LA6,Fiber,LOC0018VJT3LOAS
Digital Realty Data Center - 1,Digital Realty Data Center - 1,NOD00K79ZPFUAMM,Fiber,LOC004UKKU7R2F2
Aptum - Miami,Aptum - Miami,NOD004HZVWB31TE,Fiber,LOC00VK3KYF9N46
Micron21 Melbourne Datacentre,Micron21 Melbourne Datacentre,NOD000NAW8SPYFC,Fiber,LOC0073VELIIQXL
Interactive Melbourne,Interactive Melbourne,NOD00IB88EZMM4U,Fiber,LOC00Y0YCKUOSZE
Interactive Sydney,Interactive Sydney,NOD007YTFEGKI6J,Fiber,LOC00ALQ0LKB39S
Itility Data Centre Belle Vue,Itility Data Centre Belle Vue,NOD00B6YG1UP0NS,Fiber,LOC00KC4MLUBTA2
Data center IMAQLIQ,Data center IMAQLIQ,NOD00BC0ZGFI85E,Fiber,LOC00GWOV5HAYXZ
Stadtnetz Bamberg,Stadtnetz Bamberg,NOD004NEARKKB9U,Fiber,LOC007F7WZB3SJY
Equinix FR4,Equinix FR4,NOD00XG1CYDPX3I,Fiber,LOC007GAKR1DND6
EMMEX - Data Center,EMMEX - Data Center,NOD00B0QCIBGGK9,Fiber,LOC00EBRSBXUXRI
Linxdatacenter St.Petersburg,Linxdatacenter St.Petersburg,NOD00WOR00M3YBU,Fiber,LOC00EIDR67JIRO
Equinix New York,Equinix New York,NOD00IHFHLF41L7,Fiber,LOC002K0YGYC8UV
Beyond.pl Data Center 2,Beyond.pl Data Center 2,NOD00HZ1CKICY4N,Fiber,LOC00IH32WYGBEA
Beyond.pl Data Center 1,Beyond.pl Data Center 1,NOD00S3W6MA9TCO,Fiber,LOC00FGM11ZFGLT
Comarch Data Center,Comarch Data Center,NOD00EUH95NSDKB,Fiber,LOC00H902XHIM9Y
Nebula Helsinki,Nebula Helsinki,NOD00BX56G6L93J,Fiber,LOC00A01ICV747O
Jurong Data Center: 29A Intl. Business Park,Jurong Data Center: 29A Intl. Business Park,NOD00FEU4CWELU3,Fiber,LOC00FVX0KTVNTT
CK ZETO S.A.,CK ZETO S.A.,NOD00HO0A4SWZQT,Fiber,LOC0021DMXQ6AD1
Equinix HK1 - 1,Equinix HK1 - 1,NOD00VHYRQ3C36A,Fiber,LOC00WOYN7I1H1E
MEGA-i (iAdvantage Hong Kong) - 2,MEGA-i (iAdvantage Hong Kong) - 2,NOD00C540OGF9PQ,Fiber,LOC00C0ZV59EBWQ
EFX - 1,EFX - 1,NOD00CBTMDL9O6D,Fiber,LOC00DENP7A8XIE
Digital Realty Data Center - 2,Digital Realty Data Center - 2,NOD00P9089BGE8J,Fiber,LOC004UKKU7R2F2
Hetzner Online HEL2,Hetzner Online HEL2,NOD00UY04DR4ZZ8,Fiber,LOC008YPL003ZRV
EdgeConneX Munich - 2,EdgeConneX Munich - 2,NOD0078GRYB7SVG,Fiber,LOC00HB54HMIWA4
Core-Backbone - 1,Core-Backbone - 1,NOD00TKBPF80DV2,Fiber,LOC00LY57GBOB4B
Core-Backbone - 3,Core-Backbone - 3,NOD00EKMRP99TPN,Fiber,LOC00LY57GBOB4B
EFX - 2,EFX - 2,NOD00RKIOT7PA9Z,Fiber,LOC00DENP7A8XIE
Interxion Stockholm (STO5),Interxion Stockholm (STO5),NOD00PJKANLGPYG,Fiber,LOC00BRJC27P12F
Equinix Paris PA8,Equinix Paris PA8,NOD00CJH40SYYRJ,Fiber,LOC00Y0E3FKXQKD
EdgeConneX Munich - 1,EdgeConneX Munich - 1,NOD006KA7RQC3MH,Fiber,LOC00HB54HMIWA4
TELEHOUSE New York Staten Island,TELEHOUSE New York Staten Island,NOD0006CEG2W9HE,Fiber,LOC00DH8L1B6PW2
Interxion Marseille (MRS2),Interxion Marseille (MRS2),NOD005FBI5TR14N,Fiber,LOC001GOTS9JM6M
Pacnet Seoul(SEDS1),Pacnet Seoul(SEDS1),NOD00G03WPGVX1C,Fiber,LOC009G9536Y208
Digital Realty,Digital Realty,NOD00L6T9TD30J4,Fiber,LOC00VK3KYF9N46
Latechco WTC FZ,Latechco WTC FZ,NOD00DWIMCX202Q,Fiber,LOC003LT4VUB9I4
Excelsimo Networks Ltd,Excelsimo Networks Ltd,NOD00P85EI1BQNY,Fiber,LOC00NP31AN3J80
Digital Loyang 1,Digital Loyang 1,NOD00FW18677Q1C,Fiber,LOC00A2G388L06V
LES.NET YWG2,LES.NET YWG2,NOD00RZKTCUMZRB,Fiber,LOC00LNHX0BWQ9T
Cover-All Birchmount Centre,Cover-All Birchmount Centre,NOD00OSX8F5P074,Fiber,LOC00JLKTZBANCM
Injazat Data Center,Injazat Data Center,NOD00O6B9UTNMEM,Fiber,LOC00RRHRKQKB4O
Cologix Data Center (MTL 2),Cologix Data Center (MTL 2),NOD00HLAEB998Z1,Fiber,LOC00HQ6J5QCBBE
MANOC5,MANOC5,NOD004LM4BFGUNI,Fiber,LOC00532R3I5QZW
amcom Perth #2,amcom Perth #2,NOD0067I4LXGZU0,Fiber,LOC00PBZ6IR84OK
TeliaSonera WZW/G,TeliaSonera WZW/G,NOD00XMSUTFG95V,Fiber,LOC00NSJIO3B4Z1
BCC Data Center,BCC Data Center,NOD00K6AJTRCCKZ,Fiber,LOC00WRI7LHXOJJ
ACME Cloud Centre (HK DC2),ACME Cloud Centre (HK DC2),NOD008M0PSN88Y0,Fiber,LOC004A0CJ7L3IL
CarrierColo Berlin Luetzow - 2,CarrierColo Berlin Luetzow - 2,NOD00KGWABQ4MKR,Fiber,LOC00YA4NHTD6NG
Interxion Stockholm (STO4),Interxion Stockholm (STO4),NOD00380NYE4X71,Fiber,LOC00BRJC27P12F
Oricom Internet Colocation,Oricom Internet Colocation,NOD00AO05NQXEHE,Fiber,LOC005VWBCNH2MH
ITnet - Roma Tecnopolo Tiburtino,ITnet - Roma Tecnopolo Tiburtino,NOD007XV3C3LPRO,Fiber,LOC00KNZUZRR7U1
Sify Airoli,Sify Airoli,NOD00XBYNLBVYK7,Fiber,LOC00AKSA57L4LH
BPL Global Data Center,BPL Global Data Center,NOD00HZER3JVF5V,Fiber,LOC00HDWRD6NCLQ
internet solutions Port Elizabeth,internet solutions Port Elizabeth,NOD002NUN3U83SK,Fiber,LOC00GYEYD6AMBL
Aptum - Montreal (Downtown),Aptum - Montreal (Downtown),NOD00UO4GB525NW,Fiber,LOC007BEO2U6G0Y
Interxion Belgium,Interxion Belgium,NOD00WJRGL9BPZK,Fiber,LOC00DUTMCSSDJH
Telehouse - London (Docklands East),Telehouse - London (Docklands East),NOD00AH7TVPUKHD,Fiber,LOC00O8CERWAPKA
Atlantic Metro - LGA1,Atlantic Metro - LGA1,NOD002LBLPKMH7Y,Fiber,LOC00XMTW2VJJO3
MTP Data Center,MTP Data Center,NOD00MJSSBRMTDJ,Fiber,LOC00JE8CM5OV0V
Pier DC,Pier DC,NOD005T90HL494O,Fiber,LOC00536MAVFCTH
LINKDATACENTER,LINKDATACENTER,NOD00RSY9A3NVPD,Fiber,LOC0031GGU8931Y
Aptum - Toronto West,Aptum - Toronto West,NOD00EMCMFMBD20,Fiber,LOC002KZ110R9PM
CAT IDC FL14,CAT IDC FL14,NOD00B1582DTUQS,Fiber,LOC00UHT3PTBYQP
IPXON Networks DC CBA,IPXON Networks DC CBA,NOD00W4VBMDS4I4,Fiber,LOC00316ZAAO48Q
"Harbour MSP, Melbourne","Harbour MSP, Melbourne",NOD00JA000G11IM,Fiber,LOC00I0RRI9P1WM
DATA HUB PVT LTD,DATA HUB PVT LTD,NOD00IONRYU39KK,Fiber,LOC004JEVOLABL9
MANOC 4,MANOC 4,NOD0066EHCHN1EE,Fiber,LOC00IZN6YN5SQ4
Tata Communications Mumbai LVSB,Tata Communications Mumbai LVSB,NOD00KF4ULI4NN0,Fiber,LOC00ZGDG4QM7IL
Telnet Caldera,Telnet Caldera,NOD00XICYSVHB7F,Fiber,LOC007OKYOFUM4R
Go4Hosting Bengaluru,Go4Hosting Bengaluru,NOD00BHTJIXSBPR,Fiber,LOC00V92MREI1R5
