ENXCPQ__TECH_EXTERNAL_ID__C,SYNCEDQUOTE.ENXCPQ__TECH_EXTERNAL_ID__C
OPP00RJO9NIVTQP,QOT009QQN62BH6E
OPP000I2IP7A2HM,QOT00T6ZWE68B0Y
OPP00APUDGF84G0,QOT00Q5TPN7B11T
OPP0071WRZGCP43,QOT00R4IX0KEYXB
OPP00F85AH2LTEE,QOT00MLGXCC5MS3
OPP00XTNKH3INPI,QOT006QE0LSQX72
OPP003FWE4OA5SZ,QOT00OQ63I0EKAG
OPP00RYHOQMBIDM,QOT00S0FFISJIFH
OPP003HT4J5V3TD,QOT006XDC9BIVFA
OPP00BHNPG4I18O,QOT00IUBHPR8YPS
OPP00MIK82WHEAX,QOT00P4LE594WOH
OPP00DKHIG373TS,QOT00LRZ3656GIH
OPP00MXWTKNAXF5,QOT00H9CUB8FAVB
OPP00F6YDX9C0MK,QOT008R6SWU3KP3
OPP00PJPP3F4VLV,QOT00E9BPDW3O9K
OPP00EA8TNJ2WNH,QOT00X09ZID0VXX
OPP00ZVPA35FGTT,QOT00HTDP7F17ZA
OPP00ALKM4DEVNU,QOT00P0DIU6L82A
OPP00BPD7LW27Q8,QOT00C64HHUPY7U
OPP004Z1HBZDSXU,QOT00I6W8WYEB9M
OPP008EAK7UVM6Y,QOT00HUZDUSEJ4M
OPP008UGY2KLCYP,QOT009UBH81MC8M
OPP00Q4NPLOA7RD,QOT00EHYIDVJGWX
OPP00SJJ5XHRS13,QOT00Y26U34N575
OPP005CYCNM8VLH,QOT008BO0J6RXD4
OPP00DDW5OB554R,QOT00CTRYBJLWGP
OPP00R5F7TSJI49,QOT00T90QA9DAZK
OPP008HB5T6YSKP,QOT00VIOE99ED5R
OPP00VGUVXF93F0,QOT00ELKN34Y5CX
OPP00172HXCIFU7,QOT006E8RPRN0TD
OPP00LL9EZEVWAO,QOT00ZF7KPZJ67G
OPP00BO90CZEYRV,QOT00QWW3GXMHAS
OPP008SS1F8HT5P,QOT00VBVY9YL0ZE
OPP00K55UKRU29A,QOT00QQZ58UX4WE
OPP00P23MIMQNFL,QOT0010YZSJAPGJ
OPP00KN7R6TVNAH,QOT00ZFNQXS5YYB
OPP00KFYNIRZZR0,QOT00VDAAY5RKZO
OPP0089U070KGV2,QOT00BXX3DK116C
OPP00C9FNK2RSUX,QOT00D9AIY5Q7OV
OPP00F85MSFM4JU,QOT00EJ78CU2E5G
OPP002KAABKNO13,QOT004T50144BT9
OPP00PGTTXMQ1YH,QOT005UT3ZZWBUI
OPP00NFW9YZF21L,QOT00OS4Y9E3CIG
OPP00OCGMJLMW7J,QOT00DMRFUE1904
OPP00775GAJH9GS,QOT00NXXLZQKXD9
OPP00P7PBL769DD,QOT006OD4EYYD3B
OPP00BO7QRC7HXG,QOT00O8O7CN18YM
OPP00432ZGYD8A9,QOT00VLN2EZV1AB
OPP002CGX2AJZYY,QOT00IHRIZIJX3S
OPP0025C411HVJI,QOT00EV28L4MKZ1
OPP00M915TWSBH8,QOT003PMYT0EAN6
OPP00NQ1PMQ0YKM,QOT0073WMI1XJJA
OPP00X0D5TQQDRO,QOT00RUF58ECS4F
OPP00OLGRWO950S,QOT00B7VAB6LF5V
OPP00EKSHOBFYLW,QOT00ODRJIM2D3W
OPP006RRSZQZLI2,QOT00MVKVMG09W1
OPP001H0YWSYNKR,
OPP00DS907ZTOXH,
OPP00QGSNIVWW8E,
OPP00303AZX6OZD,
OPP00O29MZ0KV9M,
OPP00HKAR0ZVG5L,
OPP00TH5R0LI5FS,
OPP00524YZQCLIV,
OPP00NBJ9X88TV7,
OPP00E23749H7UD,
