{
    "records": [
      {
        "attributes": {
          "type": "CurrencyType",
          "referenceId": "ref2"
        },
        "IsoCode": "GBP",
        "DecimalPlaces": 2,
        "ConversionRate": 0.864000,
        "IsActive":true,
        "IsCorporate": false
      },
      {
        "attributes": {
          "type": "CurrencyType",
          "referenceId": "ref3"
        },
        "IsoCode": "PLN",
        "DecimalPlaces": 2,
        "ConversionRate": 4.272900,
        "IsActive":true,
        "IsCorporate": false
      },
      {
        "attributes": {
          "type": "CurrencyType",
          "referenceId": "ref4"
        },
        "IsoCode": "USD",
        "DecimalPlaces": 2,
        "ConversionRate": 1.109000,
        "IsActive":true,
        "IsCorporate": false
      }
    ]
  }