{
  "cmsSettings" : { },
  "currentThemeId" : "cfb07864-384c-4abe-8e77-10d7d0487fcf",
  "headMarkup" : null,
  "id" : "71671717-db06-4bf5-9a4e-998f6bccbe5e",
  "isRelaxedCSPLevel" : false,
  "label" : "main",
  "templateName" : "Enxoo_Customer_Portal",
  "type" : "appPage"
}