{
   "record": {
      "Name": "AddonUpdate",
      "ProductCode": null,
      "Description": null,
      "IsActive": true,
      "Family": null,
      "CurrencyIsoCode": "EUR",
      "ExternalDataSourceId": null,
      "ExternalId": null,
      "DisplayUrl": null,
      "QuantityUnitOfMeasure": null,
      "StockKeepingUnit": null,
      "enxCPQ__Billing_Frequency__c": null,
      "enxCPQ__Bundle_Configuration_Method__c": null,
      "enxCPQ__Charge_Criteria__c": null,
      "enxCPQ__Charge_Item_Action__c": null,
      "enxCPQ__Charge_Model__c": null,
      "enxCPQ__Charge_Name__c": null,
      "enxCPQ__Charge_Type__c": null,
      "enxCPQ__Column_Dimension__c": null,
      "enxCPQ__Column_Numeric__c": false,
      "enxCPQ__Column_Value__c": null,
      "enxCPQ__Cover_Image_URL__c": null,
      "enxCPQ__Current_Inventory__c": null,
      "enxCPQ__Current_Lead_Time__c": "In Stock",
      "enxCPQ__Description_CN__c": null,
      "enxCPQ__Description_DE__c": null,
      "enxCPQ__Description_EN__c": null,
      "enxCPQ__Description_ES__c": null,
      "enxCPQ__Description_FR__c": null,
      "enxCPQ__Description_IT__c": null,
      "enxCPQ__Description_PL__c": null,
      "enxCPQ__Description_Pattern__c": null,
      "enxCPQ__Dimension_1_Numeric__c": false,
      "enxCPQ__Dimension_1_Value__c": null,
      "enxCPQ__Dimension_1__c": null,
      "enxCPQ__Dimension_2_Numeric__c": false,
      "enxCPQ__Dimension_2_Value__c": null,
      "enxCPQ__Dimension_2__c": null,
      "enxCPQ__Dimension_3_Numeric__c": false,
      "enxCPQ__Dimension_3_Value__c": null,
      "enxCPQ__Dimension_3__c": null,
      "enxCPQ__Dimension_4_Numeric__c": false,
      "enxCPQ__Dimension_4_Value__c": null,
      "enxCPQ__Dimension_4__c": null,
      "enxCPQ__Dimension_5_Numeric__c": false,
      "enxCPQ__Dimension_5_Value__c": null,
      "enxCPQ__Dimension_5__c": null,
      "enxCPQ__Hide_for_User_Context__c": null,
      "enxCPQ__Hide_in_Product_Catalogue__c": false,
      "enxCPQ__Ignore_Inventory_Management__c": false,
      "enxCPQ__Ignore_Option_Requirement__c": false,
      "enxCPQ__Multiplier_Field__c": null,
      "enxCPQ__Name_CN__c": null,
      "enxCPQ__Name_DE__c": null,
      "enxCPQ__Name_EN__c": null,
      "enxCPQ__Name_ES__c": null,
      "enxCPQ__Name_FR__c": null,
      "enxCPQ__Name_IT__c": null,
      "enxCPQ__Name_PL__c": null,
      "enxCPQ__Pricing_Method__c": "Standard List",
      "enxCPQ__Product_Lifecycle_Status__c": "Active",
      "enxCPQ__Product_Lifecycle_Version__c": null,
      "enxCPQ__Reference_Price_Field__c": null,
      "enxCPQ__Row_Dimension__c": null,
      "enxCPQ__Row_Numeric__c": false,
      "enxCPQ__Row_Value__c": null,
      "enxCPQ__Save_Before_Calculation__c": false,
      "enxCPQ__Sorting_Order__c": null,
      "enxCPQ__TECH_Bundle_Element__c": null,
      "enxCPQ__TECH_Definition_Id__c": "PRD_ADDONUPDATE_",
      "enxCPQ__TECH_External_Id__c": "PRDADDONUPDATE",
      "enxCPQ__TECH_Is_Configurable__c": false,
      "enxCPQ__TECH_Option_JSON__c": null,
      "enxCPQ__Unit_of_Measure__c": null,
      "enxCPQ__Value_From__c": null,
      "enxCPQ__Value_To__c": null,
      "enxCPQ__Category__r": null,
      "RecordType": {
         "DeveloperName": "Product"
      }
   },
   "options": [],
   "charges": [],
   "productAttributes": [
      {
         "Name": "UpdateNumber",
         "CurrencyIsoCode": "EUR",
         "enxCPQ__Active__c": true,
         "enxCPQ__Option_Affecting__c": false,
         "enxCPQ__Order__c": 10,
         "enxCPQ__Product_Field_to_Update__c": null,
         "enxCPQ__Role__c": null,
         "enxCPQ__TECH_External_Id__c": "PAT00N2GV5GELJ5",
         "enxCPQ__Value_Boolean__c": false,
         "enxCPQ__Value_Currency__c": null,
         "enxCPQ__Value_Date__c": null,
         "enxCPQ__Value_Number__c": null,
         "enxCPQ__Value_Percent__c": null,
         "enxCPQ__Value_Text_Long__c": null,
         "enxCPQ__Value_Text_Short__c": null,
         "enxCPQ__Attribute__r": {
            "enxCPQ__TECH_External_Id__c": "ATRUPDATENUMBERNUMBER"
         },
         "enxCPQ__Attribute_Set__r": null,
         "enxCPQ__Product__r": {
            "enxCPQ__TECH_External_Id__c": "PRDADDONUPDATE"
         },
         "RecordType": {
            "DeveloperName": "Attribute"
         },
         "enxCPQ__Root_Product__r": {
            "enxCPQ__TECH_External_Id__c": "PRDADDONUPDATE"
         },
         "enxCPQ__Value_Attribute__r": null
      }
   ],
   "attributeValues": [],
   "attributeRules": [
      {
         "CurrencyIsoCode": "EUR",
         "enxCPQ__Active__c": true,
         "enxCPQ__Error_Message__c": null,
         "enxCPQ__Order__c": 10,
         "enxCPQ__Regexp__c": null,
         "enxCPQ__Rule_Attribute_Update_Logic__c": "if (PRDMASTERUPDATE#ATRUPDATEPICKLISTPICKLIST == ATVATRUPDATEPICKLISTPIC100)\n{100;} \nelse if (PRDMASTERUPDATE#ATRUPDATEPICKLISTPICKLIST == ATVATRUPDATEPICKLISTPIC200)\n{200;} \nelse if (PRDMASTERUPDATE#ATRUPDATEPICKLISTPICKLIST == ATVATRUPDATEPICKLISTPIC300)\n{300;}\nelse\n{1;}",
         "enxCPQ__Rule_Criteria__c": null,
         "enxCPQ__TECH_External_Id__c": "ARU00WOAX3225CU",
         "enxCPQ__Validation_Type__c": null,
         "enxCPQ__Value_From__c": null,
         "enxCPQ__Value_To__c": null,
         "enxCPQ__Attribute__r": {
            "enxCPQ__TECH_External_Id__c": "ATRUPDATENUMBERNUMBER"
         },
         "enxCPQ__Product__r": {
            "enxCPQ__TECH_External_Id__c": "PRDADDONUPDATE"
         },
         "enxCPQ__Root_Product__r": {
            "enxCPQ__TECH_External_Id__c": "PRDADDONUPDATE"
         },
         "RecordType": {
            "DeveloperName": "AttrUpdate"
         }
      }
   ],
   "productRelationships": [],
   "attributeDefaultValues": [],
   "attributeValueDependencies": [],
   "bundleElements": [],
   "bundleElementOptions": [],
   "provisioningPlans": []
}