{
   "record": {
      "Name": "Master_New_Location_Product",
      "ProductCode": null,
      "Description": null,
      "IsActive": true,
      "Family": null,
      "CurrencyIsoCode": "EUR",
      "ExternalDataSourceId": null,
      "ExternalId": null,
      "DisplayUrl": null,
      "QuantityUnitOfMeasure": null,
      "StockKeepingUnit": null,
      "enxCPQ__Billing_Frequency__c": null,
      "enxCPQ__Bundle_Configuration_Method__c": null,
      "enxCPQ__Charge_Criteria__c": null,
      "enxCPQ__Charge_Item_Action__c": null,
      "enxCPQ__Charge_Model__c": null,
      "enxCPQ__Charge_Name__c": null,
      "enxCPQ__Charge_Type__c": null,
      "enxCPQ__Column_Dimension__c": null,
      "enxCPQ__Column_Numeric__c": false,
      "enxCPQ__Column_Value__c": null,
      "enxCPQ__Cover_Image_URL__c": null,
      "enxCPQ__Current_Inventory__c": 0,
      "enxCPQ__Current_Lead_Time__c": "In Stock",
      "enxCPQ__Description_CN__c": null,
      "enxCPQ__Description_DE__c": null,
      "enxCPQ__Description_EN__c": null,
      "enxCPQ__Description_ES__c": null,
      "enxCPQ__Description_FR__c": null,
      "enxCPQ__Description_IT__c": null,
      "enxCPQ__Description_PL__c": null,
      "enxCPQ__Description_Pattern__c": null,
      "enxCPQ__Dimension_1_Numeric__c": false,
      "enxCPQ__Dimension_1_Value__c": null,
      "enxCPQ__Dimension_1__c": null,
      "enxCPQ__Dimension_2_Numeric__c": false,
      "enxCPQ__Dimension_2_Value__c": null,
      "enxCPQ__Dimension_2__c": null,
      "enxCPQ__Dimension_3_Numeric__c": false,
      "enxCPQ__Dimension_3_Value__c": null,
      "enxCPQ__Dimension_3__c": null,
      "enxCPQ__Dimension_4_Numeric__c": false,
      "enxCPQ__Dimension_4_Value__c": null,
      "enxCPQ__Dimension_4__c": null,
      "enxCPQ__Dimension_5_Numeric__c": false,
      "enxCPQ__Dimension_5_Value__c": null,
      "enxCPQ__Dimension_5__c": null,
      "enxCPQ__Hide_for_User_Context__c": null,
      "enxCPQ__Hide_in_Product_Catalogue__c": false,
      "enxCPQ__Ignore_Inventory_Management__c": false,
      "enxCPQ__Ignore_Option_Requirement__c": false,
      "enxCPQ__Multiplier_Field__c": null,
      "enxCPQ__Name_CN__c": null,
      "enxCPQ__Name_DE__c": null,
      "enxCPQ__Name_EN__c": null,
      "enxCPQ__Name_ES__c": null,
      "enxCPQ__Name_FR__c": null,
      "enxCPQ__Name_IT__c": null,
      "enxCPQ__Name_PL__c": null,
      "enxCPQ__Pricing_Method__c": "Standard List",
      "enxCPQ__Product_Lifecycle_Status__c": "Active",
      "enxCPQ__Product_Lifecycle_Version__c": null,
      "enxCPQ__Reference_Price_Field__c": null,
      "enxCPQ__Row_Dimension__c": null,
      "enxCPQ__Row_Numeric__c": false,
      "enxCPQ__Row_Value__c": null,
      "enxCPQ__Save_Before_Calculation__c": false,
      "enxCPQ__Sorting_Order__c": 0,
      "enxCPQ__TECH_Bundle_Element__c": null,
      "enxCPQ__TECH_Definition_Id__c": "PRD_MASTERNEWLOCATIONPRODUCT_",
      "enxCPQ__TECH_External_Id__c": "PRDMASTERNEWLOCATIONPRODUCT",
      "enxCPQ__TECH_Is_Configurable__c": true,
      "enxCPQ__TECH_Option_JSON__c": null,
      "enxCPQ__Unit_of_Measure__c": null,
      "enxCPQ__Value_From__c": 0,
      "enxCPQ__Value_To__c": 0,
      "enxCPQ__Category__r": null,
      "RecordType": {
         "DeveloperName": "Product"
      }
   },
   "options": [
      {
         "Name": "Master_New_Location_Product - 10MB",
         "ProductCode": null,
         "Description": null,
         "IsActive": true,
         "Family": null,
         "CurrencyIsoCode": "EUR",
         "ExternalDataSourceId": null,
         "ExternalId": null,
         "DisplayUrl": null,
         "QuantityUnitOfMeasure": null,
         "StockKeepingUnit": null,
         "enxCPQ__Billing_Frequency__c": null,
         "enxCPQ__Bundle_Configuration_Method__c": null,
         "enxCPQ__Charge_Criteria__c": null,
         "enxCPQ__Charge_Item_Action__c": null,
         "enxCPQ__Charge_Model__c": null,
         "enxCPQ__Charge_Name__c": null,
         "enxCPQ__Charge_Type__c": null,
         "enxCPQ__Column_Dimension__c": null,
         "enxCPQ__Column_Numeric__c": false,
         "enxCPQ__Column_Value__c": null,
         "enxCPQ__Cover_Image_URL__c": null,
         "enxCPQ__Current_Inventory__c": null,
         "enxCPQ__Current_Lead_Time__c": "In Stock",
         "enxCPQ__Description_CN__c": null,
         "enxCPQ__Description_DE__c": null,
         "enxCPQ__Description_EN__c": null,
         "enxCPQ__Description_ES__c": null,
         "enxCPQ__Description_FR__c": null,
         "enxCPQ__Description_IT__c": null,
         "enxCPQ__Description_PL__c": null,
         "enxCPQ__Description_Pattern__c": null,
         "enxCPQ__Dimension_1_Numeric__c": false,
         "enxCPQ__Dimension_1_Value__c": null,
         "enxCPQ__Dimension_1__c": null,
         "enxCPQ__Dimension_2_Numeric__c": false,
         "enxCPQ__Dimension_2_Value__c": null,
         "enxCPQ__Dimension_2__c": null,
         "enxCPQ__Dimension_3_Numeric__c": false,
         "enxCPQ__Dimension_3_Value__c": null,
         "enxCPQ__Dimension_3__c": null,
         "enxCPQ__Dimension_4_Numeric__c": false,
         "enxCPQ__Dimension_4_Value__c": null,
         "enxCPQ__Dimension_4__c": null,
         "enxCPQ__Dimension_5_Numeric__c": false,
         "enxCPQ__Dimension_5_Value__c": null,
         "enxCPQ__Dimension_5__c": null,
         "enxCPQ__Hide_for_User_Context__c": null,
         "enxCPQ__Hide_in_Product_Catalogue__c": false,
         "enxCPQ__Ignore_Inventory_Management__c": false,
         "enxCPQ__Ignore_Option_Requirement__c": false,
         "enxCPQ__Multiplier_Field__c": null,
         "enxCPQ__Name_CN__c": null,
         "enxCPQ__Name_DE__c": null,
         "enxCPQ__Name_EN__c": null,
         "enxCPQ__Name_ES__c": null,
         "enxCPQ__Name_FR__c": null,
         "enxCPQ__Name_IT__c": null,
         "enxCPQ__Name_PL__c": null,
         "enxCPQ__Pricing_Method__c": "Standard List",
         "enxCPQ__Product_Lifecycle_Status__c": "Draft",
         "enxCPQ__Product_Lifecycle_Version__c": null,
         "enxCPQ__Reference_Price_Field__c": null,
         "enxCPQ__Row_Dimension__c": null,
         "enxCPQ__Row_Numeric__c": false,
         "enxCPQ__Row_Value__c": null,
         "enxCPQ__Save_Before_Calculation__c": false,
         "enxCPQ__Sorting_Order__c": null,
         "enxCPQ__TECH_Bundle_Element__c": null,
         "enxCPQ__TECH_Definition_Id__c": "PRD_MASTERNEWLOCATIONPRODUCT10MB_",
         "enxCPQ__TECH_External_Id__c": "PRD00937AJ0HIID",
         "enxCPQ__TECH_Is_Configurable__c": false,
         "enxCPQ__TECH_Option_JSON__c": "{\n  \"ATRXBANDWIDTHPICKLIST\" : \"ATVATRXBANDWIDTHPICKLIS10MB\"\n}",
         "enxCPQ__Unit_of_Measure__c": null,
         "enxCPQ__Value_From__c": null,
         "enxCPQ__Value_To__c": null,
         "enxCPQ__Parent_Product__r": {
            "enxCPQ__TECH_External_Id__c": "PRDMASTERNEWLOCATIONPRODUCT"
         },
         "enxCPQ__Root_Product__r": {
            "enxCPQ__TECH_External_Id__c": "PRDMASTERNEWLOCATIONPRODUCT"
         },
         "RecordType": {
            "DeveloperName": "Option"
         }
      },
      {
         "Name": "Master_New_Location_Product - 50MB",
         "ProductCode": null,
         "Description": null,
         "IsActive": true,
         "Family": null,
         "CurrencyIsoCode": "EUR",
         "ExternalDataSourceId": null,
         "ExternalId": null,
         "DisplayUrl": null,
         "QuantityUnitOfMeasure": null,
         "StockKeepingUnit": null,
         "enxCPQ__Billing_Frequency__c": null,
         "enxCPQ__Bundle_Configuration_Method__c": null,
         "enxCPQ__Charge_Criteria__c": null,
         "enxCPQ__Charge_Item_Action__c": null,
         "enxCPQ__Charge_Model__c": null,
         "enxCPQ__Charge_Name__c": null,
         "enxCPQ__Charge_Type__c": null,
         "enxCPQ__Column_Dimension__c": null,
         "enxCPQ__Column_Numeric__c": false,
         "enxCPQ__Column_Value__c": null,
         "enxCPQ__Cover_Image_URL__c": null,
         "enxCPQ__Current_Inventory__c": null,
         "enxCPQ__Current_Lead_Time__c": "In Stock",
         "enxCPQ__Description_CN__c": null,
         "enxCPQ__Description_DE__c": null,
         "enxCPQ__Description_EN__c": null,
         "enxCPQ__Description_ES__c": null,
         "enxCPQ__Description_FR__c": null,
         "enxCPQ__Description_IT__c": null,
         "enxCPQ__Description_PL__c": null,
         "enxCPQ__Description_Pattern__c": null,
         "enxCPQ__Dimension_1_Numeric__c": false,
         "enxCPQ__Dimension_1_Value__c": null,
         "enxCPQ__Dimension_1__c": null,
         "enxCPQ__Dimension_2_Numeric__c": false,
         "enxCPQ__Dimension_2_Value__c": null,
         "enxCPQ__Dimension_2__c": null,
         "enxCPQ__Dimension_3_Numeric__c": false,
         "enxCPQ__Dimension_3_Value__c": null,
         "enxCPQ__Dimension_3__c": null,
         "enxCPQ__Dimension_4_Numeric__c": false,
         "enxCPQ__Dimension_4_Value__c": null,
         "enxCPQ__Dimension_4__c": null,
         "enxCPQ__Dimension_5_Numeric__c": false,
         "enxCPQ__Dimension_5_Value__c": null,
         "enxCPQ__Dimension_5__c": null,
         "enxCPQ__Hide_for_User_Context__c": null,
         "enxCPQ__Hide_in_Product_Catalogue__c": false,
         "enxCPQ__Ignore_Inventory_Management__c": false,
         "enxCPQ__Ignore_Option_Requirement__c": false,
         "enxCPQ__Multiplier_Field__c": null,
         "enxCPQ__Name_CN__c": null,
         "enxCPQ__Name_DE__c": null,
         "enxCPQ__Name_EN__c": null,
         "enxCPQ__Name_ES__c": null,
         "enxCPQ__Name_FR__c": null,
         "enxCPQ__Name_IT__c": null,
         "enxCPQ__Name_PL__c": null,
         "enxCPQ__Pricing_Method__c": "Standard List",
         "enxCPQ__Product_Lifecycle_Status__c": "Draft",
         "enxCPQ__Product_Lifecycle_Version__c": null,
         "enxCPQ__Reference_Price_Field__c": null,
         "enxCPQ__Row_Dimension__c": null,
         "enxCPQ__Row_Numeric__c": false,
         "enxCPQ__Row_Value__c": null,
         "enxCPQ__Save_Before_Calculation__c": false,
         "enxCPQ__Sorting_Order__c": null,
         "enxCPQ__TECH_Bundle_Element__c": null,
         "enxCPQ__TECH_Definition_Id__c": "PRD_MASTERNEWLOCATIONPRODUCT50MB_",
         "enxCPQ__TECH_External_Id__c": "PRD00JHWW9FQJ32",
         "enxCPQ__TECH_Is_Configurable__c": false,
         "enxCPQ__TECH_Option_JSON__c": "{\n  \"ATRXBANDWIDTHPICKLIST\" : \"ATVATRXBANDWIDTHPICKLIS50MB\"\n}",
         "enxCPQ__Unit_of_Measure__c": null,
         "enxCPQ__Value_From__c": null,
         "enxCPQ__Value_To__c": null,
         "enxCPQ__Parent_Product__r": {
            "enxCPQ__TECH_External_Id__c": "PRDMASTERNEWLOCATIONPRODUCT"
         },
         "enxCPQ__Root_Product__r": {
            "enxCPQ__TECH_External_Id__c": "PRDMASTERNEWLOCATIONPRODUCT"
         },
         "RecordType": {
            "DeveloperName": "Option"
         }
      },
      {
         "Name": "Master_New_Location_Product - 100MB",
         "ProductCode": null,
         "Description": null,
         "IsActive": true,
         "Family": null,
         "CurrencyIsoCode": "EUR",
         "ExternalDataSourceId": null,
         "ExternalId": null,
         "DisplayUrl": null,
         "QuantityUnitOfMeasure": null,
         "StockKeepingUnit": null,
         "enxCPQ__Billing_Frequency__c": null,
         "enxCPQ__Bundle_Configuration_Method__c": null,
         "enxCPQ__Charge_Criteria__c": null,
         "enxCPQ__Charge_Item_Action__c": null,
         "enxCPQ__Charge_Model__c": null,
         "enxCPQ__Charge_Name__c": null,
         "enxCPQ__Charge_Type__c": null,
         "enxCPQ__Column_Dimension__c": null,
         "enxCPQ__Column_Numeric__c": false,
         "enxCPQ__Column_Value__c": null,
         "enxCPQ__Cover_Image_URL__c": null,
         "enxCPQ__Current_Inventory__c": null,
         "enxCPQ__Current_Lead_Time__c": "In Stock",
         "enxCPQ__Description_CN__c": null,
         "enxCPQ__Description_DE__c": null,
         "enxCPQ__Description_EN__c": null,
         "enxCPQ__Description_ES__c": null,
         "enxCPQ__Description_FR__c": null,
         "enxCPQ__Description_IT__c": null,
         "enxCPQ__Description_PL__c": null,
         "enxCPQ__Description_Pattern__c": null,
         "enxCPQ__Dimension_1_Numeric__c": false,
         "enxCPQ__Dimension_1_Value__c": null,
         "enxCPQ__Dimension_1__c": null,
         "enxCPQ__Dimension_2_Numeric__c": false,
         "enxCPQ__Dimension_2_Value__c": null,
         "enxCPQ__Dimension_2__c": null,
         "enxCPQ__Dimension_3_Numeric__c": false,
         "enxCPQ__Dimension_3_Value__c": null,
         "enxCPQ__Dimension_3__c": null,
         "enxCPQ__Dimension_4_Numeric__c": false,
         "enxCPQ__Dimension_4_Value__c": null,
         "enxCPQ__Dimension_4__c": null,
         "enxCPQ__Dimension_5_Numeric__c": false,
         "enxCPQ__Dimension_5_Value__c": null,
         "enxCPQ__Dimension_5__c": null,
         "enxCPQ__Hide_for_User_Context__c": null,
         "enxCPQ__Hide_in_Product_Catalogue__c": false,
         "enxCPQ__Ignore_Inventory_Management__c": false,
         "enxCPQ__Ignore_Option_Requirement__c": false,
         "enxCPQ__Multiplier_Field__c": null,
         "enxCPQ__Name_CN__c": null,
         "enxCPQ__Name_DE__c": null,
         "enxCPQ__Name_EN__c": null,
         "enxCPQ__Name_ES__c": null,
         "enxCPQ__Name_FR__c": null,
         "enxCPQ__Name_IT__c": null,
         "enxCPQ__Name_PL__c": null,
         "enxCPQ__Pricing_Method__c": "Standard List",
         "enxCPQ__Product_Lifecycle_Status__c": "Draft",
         "enxCPQ__Product_Lifecycle_Version__c": null,
         "enxCPQ__Reference_Price_Field__c": null,
         "enxCPQ__Row_Dimension__c": null,
         "enxCPQ__Row_Numeric__c": false,
         "enxCPQ__Row_Value__c": null,
         "enxCPQ__Save_Before_Calculation__c": false,
         "enxCPQ__Sorting_Order__c": null,
         "enxCPQ__TECH_Bundle_Element__c": null,
         "enxCPQ__TECH_Definition_Id__c": "PRD_MASTERNEWLOCATIONPRODUCT100MB_",
         "enxCPQ__TECH_External_Id__c": "PRD00NNIPSH5VQS",
         "enxCPQ__TECH_Is_Configurable__c": false,
         "enxCPQ__TECH_Option_JSON__c": "{\n  \"ATRXBANDWIDTHPICKLIST\" : \"ATVATRXBANDWIDTHPICKLIS100MB\"\n}",
         "enxCPQ__Unit_of_Measure__c": null,
         "enxCPQ__Value_From__c": null,
         "enxCPQ__Value_To__c": null,
         "enxCPQ__Parent_Product__r": {
            "enxCPQ__TECH_External_Id__c": "PRDMASTERNEWLOCATIONPRODUCT"
         },
         "enxCPQ__Root_Product__r": {
            "enxCPQ__TECH_External_Id__c": "PRDMASTERNEWLOCATIONPRODUCT"
         },
         "RecordType": {
            "DeveloperName": "Option"
         }
      }
   ],
   "charges": [],
   "productAttributes": [
      {
         "Name": "[x] Location A",
         "CurrencyIsoCode": "EUR",
         "enxCPQ__Active__c": true,
         "enxCPQ__Option_Affecting__c": false,
         "enxCPQ__Order__c": 20,
         "enxCPQ__Product_Field_to_Update__c": null,
         "enxCPQ__Role__c": null,
         "enxCPQ__TECH_External_Id__c": "PAT0093G4WFZ8IY",
         "enxCPQ__Value_Boolean__c": false,
         "enxCPQ__Value_Currency__c": null,
         "enxCPQ__Value_Date__c": null,
         "enxCPQ__Value_Number__c": null,
         "enxCPQ__Value_Percent__c": null,
         "enxCPQ__Value_Text_Long__c": null,
         "enxCPQ__Value_Text_Short__c": null,
         "enxCPQ__Attribute__r": {
            "enxCPQ__TECH_External_Id__c": "ATRXLOCATIONALOCATION"
         },
         "enxCPQ__Attribute_Set__r": null,
         "enxCPQ__Product__r": {
            "enxCPQ__TECH_External_Id__c": "PRDMASTERNEWLOCATIONPRODUCT"
         },
         "RecordType": {
            "DeveloperName": "Attribute"
         },
         "enxCPQ__Root_Product__r": {
            "enxCPQ__TECH_External_Id__c": "PRDMASTERNEWLOCATIONPRODUCT"
         },
         "enxCPQ__Value_Attribute__r": null
      },
      {
         "Name": "[x] Location B",
         "CurrencyIsoCode": "EUR",
         "enxCPQ__Active__c": true,
         "enxCPQ__Option_Affecting__c": false,
         "enxCPQ__Order__c": 30,
         "enxCPQ__Product_Field_to_Update__c": null,
         "enxCPQ__Role__c": null,
         "enxCPQ__TECH_External_Id__c": "PAT00BROD7TYAEM",
         "enxCPQ__Value_Boolean__c": false,
         "enxCPQ__Value_Currency__c": null,
         "enxCPQ__Value_Date__c": null,
         "enxCPQ__Value_Number__c": null,
         "enxCPQ__Value_Percent__c": null,
         "enxCPQ__Value_Text_Long__c": null,
         "enxCPQ__Value_Text_Short__c": null,
         "enxCPQ__Attribute__r": {
            "enxCPQ__TECH_External_Id__c": "ATRXLOCATIONBLOCATION"
         },
         "enxCPQ__Attribute_Set__r": null,
         "enxCPQ__Product__r": {
            "enxCPQ__TECH_External_Id__c": "PRDMASTERNEWLOCATIONPRODUCT"
         },
         "RecordType": {
            "DeveloperName": "Attribute"
         },
         "enxCPQ__Root_Product__r": {
            "enxCPQ__TECH_External_Id__c": "PRDMASTERNEWLOCATIONPRODUCT"
         },
         "enxCPQ__Value_Attribute__r": null
      },
      {
         "Name": "[x] Bandwidth",
         "CurrencyIsoCode": "EUR",
         "enxCPQ__Active__c": true,
         "enxCPQ__Option_Affecting__c": true,
         "enxCPQ__Order__c": 40,
         "enxCPQ__Product_Field_to_Update__c": null,
         "enxCPQ__Role__c": null,
         "enxCPQ__TECH_External_Id__c": "PAT000L84W75OC9",
         "enxCPQ__Value_Boolean__c": false,
         "enxCPQ__Value_Currency__c": null,
         "enxCPQ__Value_Date__c": null,
         "enxCPQ__Value_Number__c": null,
         "enxCPQ__Value_Percent__c": null,
         "enxCPQ__Value_Text_Long__c": null,
         "enxCPQ__Value_Text_Short__c": null,
         "enxCPQ__Attribute__r": {
            "enxCPQ__TECH_External_Id__c": "ATRXBANDWIDTHPICKLIST"
         },
         "enxCPQ__Attribute_Set__r": null,
         "enxCPQ__Product__r": {
            "enxCPQ__TECH_External_Id__c": "PRDMASTERNEWLOCATIONPRODUCT"
         },
         "RecordType": {
            "DeveloperName": "Attribute"
         },
         "enxCPQ__Root_Product__r": {
            "enxCPQ__TECH_External_Id__c": "PRDMASTERNEWLOCATIONPRODUCT"
         },
         "enxCPQ__Value_Attribute__r": null
      },
      {
         "Name": "[x] Contract Length",
         "CurrencyIsoCode": "EUR",
         "enxCPQ__Active__c": true,
         "enxCPQ__Option_Affecting__c": false,
         "enxCPQ__Order__c": 50,
         "enxCPQ__Product_Field_to_Update__c": null,
         "enxCPQ__Role__c": null,
         "enxCPQ__TECH_External_Id__c": "PAT00H5KK61UDRJ",
         "enxCPQ__Value_Boolean__c": false,
         "enxCPQ__Value_Currency__c": null,
         "enxCPQ__Value_Date__c": null,
         "enxCPQ__Value_Number__c": null,
         "enxCPQ__Value_Percent__c": null,
         "enxCPQ__Value_Text_Long__c": null,
         "enxCPQ__Value_Text_Short__c": null,
         "enxCPQ__Attribute__r": {
            "enxCPQ__TECH_External_Id__c": "ATRXCONTRACTLENGTHRADIO"
         },
         "enxCPQ__Attribute_Set__r": null,
         "enxCPQ__Product__r": {
            "enxCPQ__TECH_External_Id__c": "PRDMASTERNEWLOCATIONPRODUCT"
         },
         "RecordType": {
            "DeveloperName": "Attribute"
         },
         "enxCPQ__Root_Product__r": {
            "enxCPQ__TECH_External_Id__c": "PRDMASTERNEWLOCATIONPRODUCT"
         },
         "enxCPQ__Value_Attribute__r": null
      }
   ],
   "attributeValues": [],
   "attributeRules": [
      {
         "CurrencyIsoCode": "EUR",
         "enxCPQ__Active__c": true,
         "enxCPQ__Error_Message__c": null,
         "enxCPQ__Order__c": 10,
         "enxCPQ__Regexp__c": null,
         "enxCPQ__Rule_Attribute_Update_Logic__c": null,
         "enxCPQ__Rule_Criteria__c": "ATRXCONTRACTLENGTHRADIO = ATVATRXCONTRACTLENGTHRA12",
         "enxCPQ__TECH_External_Id__c": "ARU00XS386N53DK",
         "enxCPQ__Validation_Type__c": null,
         "enxCPQ__Value_From__c": null,
         "enxCPQ__Value_To__c": null,
         "enxCPQ__Attribute__r": {
            "enxCPQ__TECH_External_Id__c": "ATRXLOCATIONBLOCATION"
         },
         "enxCPQ__Product__r": {
            "enxCPQ__TECH_External_Id__c": "PRDMASTERNEWLOCATIONPRODUCT"
         },
         "enxCPQ__Root_Product__r": {
            "enxCPQ__TECH_External_Id__c": "PRDMASTERNEWLOCATIONPRODUCT"
         },
         "RecordType": {
            "DeveloperName": "Disablement"
         }
      },
      {
         "CurrencyIsoCode": "EUR",
         "enxCPQ__Active__c": true,
         "enxCPQ__Error_Message__c": null,
         "enxCPQ__Order__c": 20,
         "enxCPQ__Regexp__c": null,
         "enxCPQ__Rule_Attribute_Update_Logic__c": null,
         "enxCPQ__Rule_Criteria__c": "ATRXCONTRACTLENGTHRADIO = ATVATRXCONTRACTLENGTHRA24",
         "enxCPQ__TECH_External_Id__c": "ARU008B0FUF4GRI",
         "enxCPQ__Validation_Type__c": null,
         "enxCPQ__Value_From__c": null,
         "enxCPQ__Value_To__c": null,
         "enxCPQ__Attribute__r": {
            "enxCPQ__TECH_External_Id__c": "ATRXLOCATIONBLOCATION"
         },
         "enxCPQ__Product__r": {
            "enxCPQ__TECH_External_Id__c": "PRDMASTERNEWLOCATIONPRODUCT"
         },
         "enxCPQ__Root_Product__r": {
            "enxCPQ__TECH_External_Id__c": "PRDMASTERNEWLOCATIONPRODUCT"
         },
         "RecordType": {
            "DeveloperName": "Requirement"
         }
      }
   ],
   "productRelationships": [
      {
         "Name": "PRD001AK0PEPNHH-PRD00XKQ7SQ7L30",
         "CurrencyIsoCode": "EUR",
         "enxCPQ__Add_On_Group_Name__c": null,
         "enxCPQ__Max_Occurrences__c": null,
         "enxCPQ__Min_Occurrences__c": null,
         "enxCPQ__Relationship_Type__c": "Component",
         "enxCPQ__TECH_External_Id__c": "PRS00EHSWVQSMT0",
         "enxCPQ__Primary_Product__r": {
            "enxCPQ__TECH_External_Id__c": "PRDMASTERNEWLOCATIONPRODUCT"
         },
         "enxCPQ__Secondary_Product__r": {
            "enxCPQ__TECH_External_Id__c": "PRDCOMPONENTNEWLOCATIONPRODUCT"
         }
      }
   ],
   "attributeDefaultValues": [],
   "attributeValueDependencies": [
      {
         "CurrencyIsoCode": "EUR",
         "enxCPQ__Execution_Order__c": null,
         "enxCPQ__TECH_Definition_Id__c": null,
         "enxCPQ__TECH_External_Id__c": "AVD002O8K8KEVFO",
         "enxCPQ__TECH_Key__c": "-PRD_MASTERNEWLOCATIONPRODUCT_--PRD_MASTERNEWLOCATIONPRODUCT_--ATR_XBANDWIDTH_--ATR_XLOCATIONA_-",
         "enxCPQ__Unavailable_Dependent_Attribute_Value__c": "Disable",
         "enxCPQ__Product__r": {
            "enxCPQ__TECH_External_Id__c": "PRDMASTERNEWLOCATIONPRODUCT"
         },
         "enxCPQ__Master_Product__r": {
            "enxCPQ__TECH_External_Id__c": "PRDMASTERNEWLOCATIONPRODUCT"
         },
         "enxCPQ__Root_Product__r": {
            "enxCPQ__TECH_External_Id__c": "PRDMASTERNEWLOCATIONPRODUCT"
         },
         "enxCPQ__Master_Attribute__r": {
            "enxCPQ__TECH_External_Id__c": "ATRXBANDWIDTHPICKLIST"
         },
         "enxCPQ__Dependent_Attribute__r": {
            "enxCPQ__TECH_External_Id__c": "ATRXLOCATIONALOCATION"
         },
         "enxCPQ__Master_Value__r": {
            "enxCPQ__TECH_External_Id__c": "ATVATRXBANDWIDTHPICKLIS50MB"
         },
         "enxCPQ__Dependent_Value__r": null
      },
      {
         "CurrencyIsoCode": "EUR",
         "enxCPQ__Execution_Order__c": null,
         "enxCPQ__TECH_Definition_Id__c": null,
         "enxCPQ__TECH_External_Id__c": "AVD00X4QVJ3K2SJ",
         "enxCPQ__TECH_Key__c": "-PRD_MASTERNEWLOCATIONPRODUCT_--PRD_MASTERNEWLOCATIONPRODUCT_--ATR_XBANDWIDTH_--ATR_XLOCATIONA_-",
         "enxCPQ__Unavailable_Dependent_Attribute_Value__c": "Disable",
         "enxCPQ__Product__r": {
            "enxCPQ__TECH_External_Id__c": "PRDMASTERNEWLOCATIONPRODUCT"
         },
         "enxCPQ__Master_Product__r": {
            "enxCPQ__TECH_External_Id__c": "PRDMASTERNEWLOCATIONPRODUCT"
         },
         "enxCPQ__Root_Product__r": {
            "enxCPQ__TECH_External_Id__c": "PRDMASTERNEWLOCATIONPRODUCT"
         },
         "enxCPQ__Master_Attribute__r": {
            "enxCPQ__TECH_External_Id__c": "ATRXBANDWIDTHPICKLIST"
         },
         "enxCPQ__Dependent_Attribute__r": {
            "enxCPQ__TECH_External_Id__c": "ATRXLOCATIONALOCATION"
         },
         "enxCPQ__Master_Value__r": {
            "enxCPQ__TECH_External_Id__c": "ATVATRXBANDWIDTHPICKLIS100MB"
         },
         "enxCPQ__Dependent_Value__r": null
      }
   ],
   "bundleElements": [],
   "bundleElementOptions": [],
   "provisioningPlans": []
}