{
  "orgName": "Fibre.me - Developer Environment",
  "country": "IE",
  "edition": "Developer",
  "namespace": "",
  "features": [
      "MultiCurrency",
      "Communities",
      "PlatformCache",
      "PartnerCommunity",
      "ForceComPlatform"
  ],
  "settings": {
      "lightningExperienceSettings": {
          "enableS1DesktopEnabled": true
      },
      "chatterSettings": {
          "enableChatter": true
      },
      "languageSettings": {
          "enableTranslationWorkbench": true
      },
      "quoteSettings": {
          "enableQuote": true
      },
      "communitiesSettings": {
          "enableNetworksEnabled": true,
          "enableOotbProfExtUserOpsEnable": true
      },
      "experienceBundleSettings": {
          "enableExperienceBundleMetadata": true
      },
      "securitySettings": {
        "passwordPolicies": {
          "enableSetPasswordInApi": true
        }
      },
      "mobileSettings": {
        "enableS1EncryptedStoragePref2": false
      }
  }
}