{
  "appPageId" : "71671717-db06-4bf5-9a4e-998f6bccbe5e",
  "id" : "f0e8ee42-e91d-42d9-8510-396d4a9519f5",
  "label" : "Cart Related List",
  "objectApiName" : "enxCPQ__Cart__c",
  "pageAccess" : "UseParent",
  "routeType" : "relatedlist-a0G",
  "type" : "route",
  "urlPrefix" : "quotes/cart"
}