{
  "appPageId" : "43a875ca-c057-4ac9-82aa-bd43c213c991",
  "id" : "21838707-acf1-4653-851e-f622494573fc",
  "label" : "Check Password",
  "pageAccess" : "UseParent",
  "routeType" : "check-password",
  "type" : "route",
  "urlPrefix" : "CheckPasswordResetEmail"
}