{
  "appPageId" : "71671717-db06-4bf5-9a4e-998f6bccbe5e",
  "id" : "a3e7a7fa-82ff-4029-83a4-c252957e42ac",
  "label" : "Service Related List",
  "objectApiName" : "enxB2B__Service__c",
  "pageAccess" : "UseParent",
  "routeType" : "relatedlist-a0h",
  "type" : "route",
  "urlPrefix" : "services/service"
}