{
   "record": {
      "Name": "[x] A End",
      "CurrencyIsoCode": "EUR",
      "enxCPQ__Active__c": true,
      "enxCPQ__Decimal_Places__c": null,
      "enxCPQ__Description_CN__c": null,
      "enxCPQ__Description_DE__c": null,
      "enxCPQ__Description_EN__c": null,
      "enxCPQ__Description_ES__c": null,
      "enxCPQ__Description_FR__c": null,
      "enxCPQ__Description_IT__c": null,
      "enxCPQ__Description_PL__c": null,
      "enxCPQ__Description__c": null,
      "enxCPQ__Disable_Create_New_Location__c": false,
      "enxCPQ__Display_Disabled__c": false,
      "enxCPQ__Display_in_Configurator__c": true,
      "enxCPQ__Display_not_for_Item_Action__c": null,
      "enxCPQ__Display_not_for_Profile__c": null,
      "enxCPQ__Display_not_on_Quote_Stage__c": null,
      "enxCPQ__Display_on_Configuration_Description__c": false,
      "enxCPQ__Editable_not_for_Item_Action__c": null,
      "enxCPQ__Editable_not_for_Profile__c": null,
      "enxCPQ__Editable_not_on_Quote_Stage__c": null,
      "enxCPQ__Helptext__c": null,
      "enxCPQ__Is_Propagable__c": false,
      "enxCPQ__Item_Field_Type__c": null,
      "enxCPQ__Location_Filter__c": null,
      "enxCPQ__Lookup_Field_Query__c": null,
      "enxCPQ__Lookup_Field__c": null,
      "enxCPQ__Lookup_Filters__c": null,
      "enxCPQ__Lookup_Object__c": null,
      "enxCPQ__Name_CN__c": null,
      "enxCPQ__Name_DE__c": null,
      "enxCPQ__Name_EN__c": null,
      "enxCPQ__Name_ES__c": null,
      "enxCPQ__Name_FR__c": null,
      "enxCPQ__Name_IT__c": null,
      "enxCPQ__Name_PL__c": null,
      "enxCPQ__Product_Field_to_Update__c": "A_location__c",
      "enxCPQ__Required__c": false,
      "enxCPQ__Required_on_Quote_Stage__c": null,
      "enxCPQ__Source_Field_Cart__c": null,
      "enxCPQ__Source_Field__c": null,
      "enxCPQ__TECH_Definition_Id__c": "ATR_XAEND_",
      "enxCPQ__TECH_External_Id__c": "ATRXAENDLOCATION",
      "enxCPQ__Type__c": "Location",
      "enxCPQ__Display_Turn_On_Manual_Entry_button__c": false
   },
   "attributeValues": [
      {
         "Name": "HGCProvider",
         "CurrencyIsoCode": "EUR",
         "enxCPQ__Active__c": true,
         "enxCPQ__Decimal_Places__c": null,
         "enxCPQ__Manual_Attribute_Value_Entry__c": false,
         "enxCPQ__Manual_Entry_Attribute_Type__c": null,
         "enxCPQ__Name_CN__c": null,
         "enxCPQ__Name_DE__c": null,
         "enxCPQ__Name_EN__c": null,
         "enxCPQ__Name_ES__c": null,
         "enxCPQ__Name_FR__c": null,
         "enxCPQ__Name_IT__c": null,
         "enxCPQ__Name_PL__c": null,
         "enxCPQ__Order__c": null,
         "enxCPQ__TECH_Definition_Id__c": "ATV_XAENDPROVIDER",
         "enxCPQ__TECH_External_Id__c": "ATVATRXAENDLOCATIONHGCPROVIDER",
         "enxCPQ__Attribute__r": {
            "enxCPQ__TECH_External_Id__c": "ATRXAENDLOCATION"
         }
      },
      {
         "Name": "HGCCustomer",
         "CurrencyIsoCode": "EUR",
         "enxCPQ__Active__c": true,
         "enxCPQ__Decimal_Places__c": null,
         "enxCPQ__Manual_Attribute_Value_Entry__c": false,
         "enxCPQ__Manual_Entry_Attribute_Type__c": null,
         "enxCPQ__Name_CN__c": null,
         "enxCPQ__Name_DE__c": null,
         "enxCPQ__Name_EN__c": null,
         "enxCPQ__Name_ES__c": null,
         "enxCPQ__Name_FR__c": null,
         "enxCPQ__Name_IT__c": null,
         "enxCPQ__Name_PL__c": null,
         "enxCPQ__Order__c": null,
         "enxCPQ__TECH_Definition_Id__c": "ATV_XAENDCUSTOMER",
         "enxCPQ__TECH_External_Id__c": "ATVATRXAENDLOCATIONHGCCUSTOMER",
         "enxCPQ__Attribute__r": {
            "enxCPQ__TECH_External_Id__c": "ATRXAENDLOCATION"
         }
      }
   ]
}