{
  "appPageId" : "71671717-db06-4bf5-9a4e-998f6bccbe5e",
  "componentName" : "siteforce:dynamicLayout",
  "id" : "6985de8d-982d-4f70-9768-791c31ad2171",
  "label" : "Cart Detail",
  "regions" : [ {
    "components" : [ {
      "componentAttributes" : {
        "background" : "background: rgba(255,255,255,0.7)",
        "backgroundOverlay" : "rgba(0,0,0,0.5)",
        "contentAreaWidth" : 100,
        "sectionConfig" : {
          "UUID" : "a8d4e82d-8be5-48e9-b5b4-7767c76f4893",
          "columns" : [ {
            "UUID" : "bd5a6cb2-9844-4870-af6c-12e94f4aadbd",
            "columnKey" : "1",
            "columnName" : "Column 1",
            "columnWidth" : "9",
            "seedComponents" : [ ]
          }, {
            "UUID" : "ecfbfaaf-e22f-4502-8f6d-846b927f2481",
            "columnKey" : "165cd",
            "columnName" : "Column 2",
            "columnWidth" : "3",
            "seedComponents" : [ ]
          } ]
        },
        "sectionHeight" : 150
      },
      "componentName" : "forceCommunity:section",
      "id" : "a8d4e82d-8be5-48e9-b5b4-7767c76f4893",
      "regions" : [ {
        "components" : [ {
          "componentAttributes" : {
            "recordId" : "{!recordId}"
          },
          "componentName" : "forceCommunity:recordHeadline",
          "id" : "d5e799b6-e165-49af-b5e4-54bf95a2cfb6",
          "renderPriority" : "NEUTRAL",
          "renditionMap" : { },
          "type" : "component"
        } ],
        "id" : "bd5a6cb2-9844-4870-af6c-12e94f4aadbd",
        "regionLabel" : "Column 1",
        "regionName" : "1",
        "type" : "region"
      }, {
        "components" : [ {
          "componentAttributes" : {
            "alignment" : "right",
            "href" : "/quotes/checkout?cartId={!recordId}",
            "label" : "Checkout",
            "size" : "medium",
            "variant" : "brand"
          },
          "componentName" : "c:PRT_NavigationButton",
          "id" : "0fdd2037-3290-4bf7-abed-6aba1a714a6d",
          "renderPriority" : "NEUTRAL",
          "renditionMap" : { },
          "type" : "component"
        }, {
          "componentAttributes" : {
            "alignment" : "right",
            "href" : "/buy?cartId={!recordId}",
            "label" : "Add Product",
            "size" : "medium",
            "variant" : "brand-outline"
          },
          "componentName" : "c:PRT_NavigationButton",
          "id" : "4edeeb73-44ea-4697-a7d5-8512607ce43b",
          "renderPriority" : "NEUTRAL",
          "renditionMap" : { },
          "type" : "component"
        } ],
        "id" : "ecfbfaaf-e22f-4502-8f6d-846b927f2481",
        "regionLabel" : "Column 2",
        "regionName" : "165cd",
        "type" : "region"
      } ],
      "renderPriority" : "NEUTRAL",
      "renditionMap" : { },
      "type" : "component"
    }, {
      "componentAttributes" : {
        "background" : "background: rgba(255,255,255,0.7)",
        "backgroundOverlay" : "rgba(0,0,0,0.5)",
        "contentAreaWidth" : 100,
        "sectionConfig" : {
          "UUID" : "4c6ffd65-89e3-4379-a800-b6e6c3906a2f",
          "columns" : [ {
            "UUID" : "cda9c059-d24b-4515-bf0f-5da53038fc7f",
            "columnKey" : "1",
            "columnName" : "Column 1",
            "columnWidth" : "12",
            "seedComponents" : [ ]
          } ]
        },
        "sectionHeight" : 300
      },
      "componentName" : "forceCommunity:section",
      "id" : "4c6ffd65-89e3-4379-a800-b6e6c3906a2f",
      "regions" : [ {
        "components" : [ {
          "componentAttributes" : {
            "tabsetConfig" : {
              "UUID" : "bbc174dc-1388-49ab-80e9-476fda4cd830",
              "activeTab" : "",
              "tabs" : [ {
                "UUID" : "0a78122c-40d8-4852-9a92-b72512229cdf",
                "allowGuestUser" : false,
                "locked" : false,
                "seedComponents" : [ ],
                "tabKey" : "1",
                "tabName" : "SUMMARY"
              }, {
                "UUID" : "66f15806-7232-4686-a328-10d954f88d8f",
                "allowGuestUser" : false,
                "locked" : false,
                "seedComponents" : [ ],
                "tabKey" : "2",
                "tabName" : "DETAIL"
              } ],
              "useOverflowMenu" : false
            }
          },
          "componentName" : "forceCommunity:tabset",
          "id" : "bbc174dc-1388-49ab-80e9-476fda4cd830",
          "regions" : [ {
            "components" : [ {
              "componentAttributes" : {
                "richTextValue" : "<p style=\"text-align: center;\">&nbsp;&nbsp;&nbsp;</p>"
              },
              "componentName" : "forceCommunity:richTextInline",
              "id" : "cd9682c7-e9f8-46de-9fa8-7287ad80aa78",
              "renderPriority" : "NEUTRAL",
              "renditionMap" : { },
              "type" : "component"
            }, {
              "componentAttributes" : {
                "cartId" : "{!recordId}",
                "hideActionsColumn" : false,
                "hideCharges" : false
              },
              "componentName" : "enxCPQ:crtCartSummary",
              "id" : "b09c4d82-880d-4d87-ada0-39b93183c67d",
              "renderPriority" : "NEUTRAL",
              "renditionMap" : { },
              "type" : "component"
            } ],
            "id" : "0a78122c-40d8-4852-9a92-b72512229cdf",
            "regionLabel" : "SUMMARY",
            "regionName" : "1",
            "type" : "region"
          }, {
            "components" : [ {
              "componentAttributes" : {
                "richTextValue" : "<p style=\"text-align: center;\">&nbsp;&nbsp;&nbsp;</p>"
              },
              "componentName" : "forceCommunity:richTextInline",
              "id" : "d0a74636-0882-4985-8b9d-1ecabd989a3f",
              "renderPriority" : "NEUTRAL",
              "renditionMap" : { },
              "type" : "component"
            }, {
              "componentAttributes" : {
                "detailsTabLabel" : "Details",
                "discussionsTabLabel" : "Feed",
                "recordId" : "{!recordId}",
                "relatedTabLabel" : "Related",
                "tab1Type" : "details",
                "tab2Type" : "none",
                "tab3Type" : "related",
                "tab4Type" : "none",
                "timelineTabLabel" : "Activity"
              },
              "componentName" : "forceCommunity:recordHomeTabs",
              "id" : "95591691-5fd4-4340-bc48-1a546f7765db",
              "renderPriority" : "NEUTRAL",
              "renditionMap" : { },
              "type" : "component"
            } ],
            "id" : "66f15806-7232-4686-a328-10d954f88d8f",
            "regionLabel" : "DETAIL",
            "regionName" : "2",
            "type" : "region"
          } ],
          "renderPriority" : "NEUTRAL",
          "renditionMap" : { },
          "type" : "component"
        }, {
          "componentAttributes" : {
            "readOnlyMode" : true,
            "recordId" : "{!recordId}"
          },
          "componentName" : "enxCPQ:crtDiscountList",
          "id" : "44967b87-c88b-467b-a35d-d7b6343313af",
          "renderPriority" : "NEUTRAL",
          "renditionMap" : { },
          "type" : "component"
        } ],
        "id" : "cda9c059-d24b-4515-bf0f-5da53038fc7f",
        "regionLabel" : "Column 1",
        "regionName" : "1",
        "type" : "region"
      } ],
      "renderPriority" : "NEUTRAL",
      "renditionMap" : { },
      "type" : "component"
    } ],
    "id" : "e83e33e2-d6d0-429c-9ea5-ad6debc2b8c3",
    "regionName" : "content",
    "type" : "region"
  }, {
    "components" : [ {
      "componentAttributes" : {
        "description" : "",
        "metaTags" : "",
        "title" : "{!Record._Object}: {!Record._Title}"
      },
      "componentName" : "forceCommunity:seoAssistant",
      "id" : "7865144b-e048-461b-afcb-5e964c6af4b6",
      "renderPriority" : "NEUTRAL",
      "renditionMap" : { },
      "type" : "component"
    } ],
    "id" : "430ca303-0af7-4769-a75a-3759eb7630e7",
    "regionName" : "sfdcHiddenRegion",
    "type" : "region"
  } ],
  "themeLayoutType" : "o5wtm4zhtsfOTyAB8WiuLxYSJtPjbg",
  "type" : "view",
  "viewType" : "detail-a0G"
}