{
  "appPageId" : "71671717-db06-4bf5-9a4e-998f6bccbe5e",
  "componentName" : "siteforce:dynamicLayout",
  "id" : "80c7d8b8-3d0e-4d7a-b8ba-28eaa82b77d7",
  "label" : "Home",
  "regions" : [ {
    "components" : [ {
      "componentAttributes" : {
        "background" : "background: rgba(255,255,255,0.7)",
        "backgroundOverlay" : "rgba(255, 255, 255, 0.5)",
        "contentAreaWidth" : 100,
        "sectionConfig" : {
          "UUID" : "0daa7148-29a6-4658-aec0-a2ecd542877e",
          "columns" : [ {
            "UUID" : "f59e4237-823d-4837-86d0-904214c516b8",
            "columnKey" : "1",
            "columnName" : "Column 1",
            "columnWidth" : "12",
            "seedComponents" : [ ]
          } ]
        },
        "sectionHeight" : 100
      },
      "componentName" : "forceCommunity:section",
      "id" : "0daa7148-29a6-4658-aec0-a2ecd542877e",
      "regions" : [ {
        "components" : [ {
          "componentAttributes" : {
            "richTextValue" : "<h1 style=\"text-align: center;\"><span style=\"font-size: 36px;\">Enxoo Customer Portal</span></h1>"
          },
          "componentName" : "forceCommunity:richTextInline",
          "id" : "9ec407c9-95ae-403a-93b4-eaf225222c3d",
          "renderPriority" : "NEUTRAL",
          "renditionMap" : { },
          "type" : "component"
        } ],
        "id" : "f59e4237-823d-4837-86d0-904214c516b8",
        "regionLabel" : "Column 1",
        "regionName" : "1",
        "type" : "region"
      } ],
      "renderPriority" : "NEUTRAL",
      "renditionMap" : { },
      "type" : "component"
    }, {
      "componentAttributes" : {
        "background" : "background: rgba(255,255,255,0.7)",
        "backgroundOverlay" : "rgba(0,0,0,0.5)",
        "contentAreaWidth" : 100,
        "sectionConfig" : {
          "UUID" : "c9f9b50d-8f79-47ab-b5ec-c5f1859d42e7",
          "columns" : [ {
            "UUID" : "295307a3-363e-4d4d-bc71-55a50053c47b",
            "columnKey" : "1",
            "columnName" : "Column 1",
            "columnWidth" : "3",
            "seedComponents" : [ ]
          }, {
            "UUID" : "5e3a19eb-224c-42f6-8c51-e0baf73dfbbc",
            "columnKey" : "9ebce",
            "columnName" : "Column 2",
            "columnWidth" : "3",
            "seedComponents" : [ ]
          }, {
            "UUID" : "653b1c9b-7bb1-4d2f-866e-a72c9b9273d7",
            "columnKey" : "39c47",
            "columnName" : "Column 3",
            "columnWidth" : "3",
            "seedComponents" : [ ]
          }, {
            "UUID" : "ec0f3bb7-0192-47d5-8d1c-528f204fe6d6",
            "columnKey" : "721d7",
            "columnName" : "Column 4",
            "columnWidth" : "3",
            "seedComponents" : [ ]
          } ]
        },
        "sectionHeight" : 300
      },
      "componentName" : "forceCommunity:section",
      "id" : "c9f9b50d-8f79-47ab-b5ec-c5f1859d42e7",
      "regions" : [ {
        "components" : [ {
          "componentAttributes" : {
            "richTextValue" : "<p><br /></p>\n<p> <img class=\"sfdcCbImage\" src=\"{!contentAsset.EnxooIllustration_Guide.1}\" />&nbsp;</p>"
          },
          "componentName" : "forceCommunity:richTextInline",
          "id" : "e02fbe1c-0f51-4abb-9a6c-f531f8fc1693",
          "renderPriority" : "NEUTRAL",
          "renditionMap" : { },
          "type" : "component"
        } ],
        "id" : "295307a3-363e-4d4d-bc71-55a50053c47b",
        "regionLabel" : "Column 1",
        "regionName" : "1",
        "type" : "region"
      }, {
        "components" : [ {
          "componentAttributes" : {
            "richTextValue" : "<p> </p>"
          },
          "componentName" : "forceCommunity:richTextInline",
          "id" : "c9cd1656-f965-4dd6-8e56-e71f95fd8980",
          "renderPriority" : "NEUTRAL",
          "renditionMap" : { },
          "type" : "component"
        } ],
        "id" : "5e3a19eb-224c-42f6-8c51-e0baf73dfbbc",
        "regionLabel" : "Column 2",
        "regionName" : "9ebce",
        "type" : "region"
      }, {
        "components" : [ {
          "componentAttributes" : {
            "richTextValue" : "<p style=\"text-align: center;\"><img class=\"sfdcCbImage\" src=\"{!contentAsset.EnxooIllustration_Transformer.1}\" style=\"width: 269.781px; height: 274.484px;\" /></p>"
          },
          "componentName" : "forceCommunity:richTextInline",
          "id" : "7278cf1e-f1aa-4977-9d74-a52557b5729f",
          "renderPriority" : "NEUTRAL",
          "renditionMap" : { },
          "type" : "component"
        } ],
        "id" : "653b1c9b-7bb1-4d2f-866e-a72c9b9273d7",
        "regionLabel" : "Column 3",
        "regionName" : "39c47",
        "type" : "region"
      }, {
        "components" : [ {
          "componentAttributes" : {
            "richTextValue" : "<p style=\"text-align: center;\"><img class=\"sfdcCbImage\" src=\"{!contentAsset.EnxooIllustration_Employees.1}\" style=\"width: 284.75px; height: 260.641px;\" /></p>"
          },
          "componentName" : "forceCommunity:richTextInline",
          "id" : "9478dad5-8244-4859-b257-95ec07c2f975",
          "renderPriority" : "NEUTRAL",
          "renditionMap" : { },
          "type" : "component"
        } ],
        "id" : "ec0f3bb7-0192-47d5-8d1c-528f204fe6d6",
        "regionLabel" : "Column 4",
        "regionName" : "721d7",
        "type" : "region"
      } ],
      "renderPriority" : "NEUTRAL",
      "renditionMap" : { },
      "type" : "component"
    }, {
      "componentAttributes" : {
        "background" : "background: rgba(255,255,255,0.7)",
        "backgroundOverlay" : "rgba(0,0,0,0.5)",
        "contentAreaWidth" : 100,
        "sectionConfig" : {
          "UUID" : "99b3e129-e6e4-4255-934f-686d8d17477f",
          "columns" : [ {
            "UUID" : "53c1c6f3-d065-45ec-82df-4f45df5e459c",
            "columnKey" : "1",
            "columnName" : "Column 1",
            "columnWidth" : "3",
            "seedComponents" : [ ]
          }, {
            "UUID" : "edbd4605-2230-4812-941d-617f7bd17c63",
            "columnKey" : "a2dd2",
            "columnName" : "Column 2",
            "columnWidth" : "3",
            "seedComponents" : [ ]
          }, {
            "UUID" : "071c8635-432c-4826-b8aa-bfc5bbcdaaf2",
            "columnKey" : "87d7c",
            "columnName" : "Column 3",
            "columnWidth" : "3",
            "seedComponents" : [ ]
          }, {
            "UUID" : "dd9be4f6-abe2-42c6-91c8-1e3d7ce86ac1",
            "columnKey" : "4a8fd",
            "columnName" : "Column 4",
            "columnWidth" : "3",
            "seedComponents" : [ ]
          } ]
        },
        "sectionHeight" : 80
      },
      "componentName" : "forceCommunity:section",
      "id" : "99b3e129-e6e4-4255-934f-686d8d17477f",
      "regions" : [ {
        "components" : [ {
          "componentAttributes" : {
            "alignment" : "center",
            "href" : "/network",
            "label" : "Explore our Network",
            "size" : "full-width",
            "variant" : "brand-outline"
          },
          "componentName" : "c:PRT_NavigationButton",
          "id" : "5e23c3f9-9840-4e6b-94e7-72309ae4f226",
          "renderPriority" : "NEUTRAL",
          "renditionMap" : { },
          "type" : "component"
        } ],
        "id" : "53c1c6f3-d065-45ec-82df-4f45df5e459c",
        "regionLabel" : "Column 1",
        "regionName" : "1",
        "type" : "region"
      }, {
        "components" : [ {
          "componentAttributes" : {
            "alignment" : "center",
            "href" : "/buy",
            "label" : "Buy our Services",
            "size" : "full-width",
            "variant" : "brand-outline"
          },
          "componentName" : "c:PRT_NavigationButton",
          "id" : "d1fb316b-51e9-4522-9150-fe1183c43a8c",
          "renderPriority" : "NEUTRAL",
          "renditionMap" : { },
          "type" : "component"
        } ],
        "id" : "edbd4605-2230-4812-941d-617f7bd17c63",
        "regionLabel" : "Column 2",
        "regionName" : "a2dd2",
        "type" : "region"
      }, {
        "components" : [ {
          "componentAttributes" : {
            "alignment" : "center",
            "href" : "/services",
            "label" : "Manage your Services",
            "size" : "full-width",
            "variant" : "brand-outline"
          },
          "componentName" : "c:PRT_NavigationButton",
          "id" : "10049a5a-35f2-4506-b1d7-a8da04d80b67",
          "renderPriority" : "NEUTRAL",
          "renditionMap" : { },
          "type" : "component"
        } ],
        "id" : "071c8635-432c-4826-b8aa-bfc5bbcdaaf2",
        "regionLabel" : "Column 3",
        "regionName" : "87d7c",
        "type" : "region"
      }, {
        "components" : [ {
          "componentAttributes" : {
            "alignment" : "center",
            "href" : "/support",
            "label" : "Get Support",
            "size" : "full-width",
            "variant" : "brand-outline"
          },
          "componentName" : "c:PRT_NavigationButton",
          "id" : "eda27619-9c1a-4d34-a781-fe330b018841",
          "renderPriority" : "NEUTRAL",
          "renditionMap" : { },
          "type" : "component"
        } ],
        "id" : "dd9be4f6-abe2-42c6-91c8-1e3d7ce86ac1",
        "regionLabel" : "Column 4",
        "regionName" : "4a8fd",
        "type" : "region"
      } ],
      "renderPriority" : "NEUTRAL",
      "renditionMap" : { },
      "type" : "component"
    }, {
      "componentAttributes" : {
        "background" : "background: rgba(255,255,255,0.7)",
        "backgroundOverlay" : "rgba(0,0,0,0.5)",
        "contentAreaWidth" : 100,
        "sectionConfig" : {
          "UUID" : "901c0476-2f3f-4176-a761-265e26975cd5",
          "columns" : [ {
            "UUID" : "bfa5ec54-229c-4f5b-b9e3-71c9b6325f3e",
            "columnKey" : "1",
            "columnName" : "Column 1",
            "columnWidth" : "12",
            "seedComponents" : [ ]
          } ]
        },
        "sectionHeight" : 102
      },
      "componentName" : "forceCommunity:section",
      "id" : "901c0476-2f3f-4176-a761-265e26975cd5",
      "regions" : [ {
        "components" : [ {
          "componentAttributes" : {
            "richTextValue" : "<h1 style=\"text-align: center;\"><span style=\"font-size: 36px;\">Dashboard</span></h1>"
          },
          "componentName" : "forceCommunity:richTextInline",
          "id" : "319bb548-7d94-4890-bc34-60fad844da90",
          "renderPriority" : "NEUTRAL",
          "renditionMap" : { },
          "type" : "component"
        } ],
        "id" : "bfa5ec54-229c-4f5b-b9e3-71c9b6325f3e",
        "regionLabel" : "Column 1",
        "regionName" : "1",
        "type" : "region"
      } ],
      "renderPriority" : "NEUTRAL",
      "renditionMap" : { },
      "type" : "component"
    }, {
      "componentAttributes" : {
        "background" : "background: rgba(255,255,255,0.7)",
        "backgroundOverlay" : "rgba(0,0,0,0.5)",
        "contentAreaWidth" : 100,
        "sectionConfig" : {
          "UUID" : "72968660-3ae3-4419-ab6c-f8649ca65154",
          "columns" : [ {
            "UUID" : "7d47b9c1-0854-4f23-9058-1c3a71c6c8af",
            "columnKey" : "1",
            "columnName" : "Column 1",
            "columnWidth" : "6",
            "seedComponents" : [ ]
          }, {
            "UUID" : "2be5f60c-87a7-468e-a496-5c160a659d47",
            "columnKey" : "4cb4f",
            "columnName" : "Column 2",
            "columnWidth" : "6",
            "seedComponents" : [ ]
          } ]
        },
        "sectionHeight" : 300
      },
      "componentName" : "forceCommunity:section",
      "id" : "72968660-3ae3-4419-ab6c-f8649ca65154",
      "regions" : [ {
        "components" : [ {
          "componentAttributes" : {
            "richTextValue" : "<h1 style=\"text-align: center;\"><span style=\"font-size: 24px;\">Your Quotes</span></h1>"
          },
          "componentName" : "forceCommunity:richTextInline",
          "id" : "93d1b9ef-4cc3-499c-ba37-2ac6a9b4c37d",
          "renderPriority" : "NEUTRAL",
          "renditionMap" : { },
          "type" : "component"
        }, {
          "componentAttributes" : {
            "childObjectFilter" : "",
            "childObjectOrderBy" : "",
            "childObjectRelationshipLabel" : "",
            "childObjectRelationshipName" : "",
            "childrenLimit" : 10,
            "filter" : "RecordType.Name = 'Cart' and enxCPQ__Status__c != 'Closed'",
            "limit" : 5,
            "objectApiName" : "enxCPQ__Cart__c",
            "objectFieldsString" : "Name, enxCPQ__Status__c, CreatedDate",
            "orderBy" : "CreatedDate DESC"
          },
          "componentName" : "c:prtGenericListView",
          "id" : "34a29f60-4d0d-4a24-a599-e7df536d17f5",
          "renderPriority" : "NEUTRAL",
          "renditionMap" : { },
          "type" : "component"
        } ],
        "id" : "7d47b9c1-0854-4f23-9058-1c3a71c6c8af",
        "regionLabel" : "Column 1",
        "regionName" : "1",
        "type" : "region"
      }, {
        "components" : [ {
          "componentAttributes" : {
            "richTextValue" : "<h1 style=\"text-align: center;\"><span style=\"font-size: 24px;\">Your Services</span></h1>"
          },
          "componentName" : "forceCommunity:richTextInline",
          "id" : "bf6bb10a-3c5f-4caa-8c75-bcccb6395b77",
          "renderPriority" : "NEUTRAL",
          "renditionMap" : { },
          "type" : "component"
        }, {
          "componentAttributes" : {
            "childObjectFilter" : "",
            "childObjectOrderBy" : "",
            "childObjectRelationshipLabel" : "",
            "childObjectRelationshipName" : "",
            "childrenLimit" : 10,
            "filter" : "enxB2B__Status__c = 'Active'",
            "limit" : 5,
            "objectApiName" : "enxB2B__Service__c",
            "objectFieldsString" : "Name, enxB2B__Product__r.Name, enxB2B__Description__c",
            "orderBy" : "CreatedDate DESC"
          },
          "componentName" : "c:prtGenericListView",
          "id" : "ba0b9c11-c965-4866-9039-9feacd35239f",
          "renderPriority" : "NEUTRAL",
          "renditionMap" : { },
          "type" : "component"
        } ],
        "id" : "2be5f60c-87a7-468e-a496-5c160a659d47",
        "regionLabel" : "Column 2",
        "regionName" : "4cb4f",
        "type" : "region"
      } ],
      "renderPriority" : "NEUTRAL",
      "renditionMap" : { },
      "type" : "component"
    } ],
    "id" : "ac72563a-6f73-439d-be50-9304b37b76f7",
    "regionName" : "content",
    "type" : "region"
  }, {
    "components" : [ {
      "componentAttributes" : {
        "description" : "",
        "metaTags" : "",
        "title" : "Home"
      },
      "componentName" : "forceCommunity:seoAssistant",
      "id" : "f930abd4-e74a-4764-b233-f338498682da",
      "renderPriority" : "NEUTRAL",
      "renditionMap" : { },
      "type" : "component"
    } ],
    "id" : "28ff5d1f-52b5-43c3-b51d-38736b33ef07",
    "regionName" : "sfdcHiddenRegion",
    "type" : "region"
  } ],
  "themeLayoutType" : "Inner",
  "type" : "view",
  "viewType" : "home"
}