{
  "appPageId" : "71671717-db06-4bf5-9a4e-998f6bccbe5e",
  "componentName" : "siteforce:sldsOneColLayout",
  "id" : "cafe40b2-4a12-4843-93dc-a5bf7df30092",
  "label" : "Order List",
  "regions" : [ {
    "id" : "1a98dbe7-f412-4e63-9885-b5d6fcaeef7b",
    "regionName" : "header",
    "type" : "region"
  }, {
    "components" : [ {
      "componentAttributes" : {
        "enableInlineEdit" : true,
        "filterName" : "{!filterId}",
        "layout" : "FULL",
        "pageSize" : 25,
        "scope" : "{!objectName}",
        "showActionBar" : true,
        "showChartsPanel" : true,
        "showDisplay" : "showall",
        "showFilterPanel" : true,
        "showImageIcon" : true,
        "showManualRefreshButton" : true,
        "showObjectName" : true,
        "showPinnedList" : true,
        "showSearchBar" : true
      },
      "componentName" : "forceCommunity:objectHome",
      "id" : "53bfe7c6-6e44-4b74-a532-84fd221c29b9",
      "renderPriority" : "NEUTRAL",
      "renditionMap" : { },
      "type" : "component"
    } ],
    "id" : "3e4d210a-ea05-45de-8a45-5950711b4f0c",
    "regionName" : "content",
    "type" : "region"
  }, {
    "id" : "a98fbde5-3579-4938-8e30-58de35775502",
    "regionName" : "footer",
    "type" : "region"
  } ],
  "themeLayoutType" : "o5wtm4zhtsfOTyAB8WiuLxYSJtPjbg",
  "type" : "view",
  "viewType" : "list-801"
}