{
  "appPageId" : "71671717-db06-4bf5-9a4e-998f6bccbe5e",
  "componentName" : "siteforce:dynamicLayout",
  "id" : "407bd89d-c85e-415d-9358-3dd63f780643",
  "label" : "Orders",
  "regions" : [ {
    "components" : [ {
      "componentAttributes" : {
        "background" : "background: rgba(255,255,255,0.7)",
        "backgroundOverlay" : "rgba(0,0,0,0.5)",
        "contentAreaWidth" : 100,
        "sectionConfig" : {
          "UUID" : "a28a44d7-5f06-4063-929e-24f9be97ac1a",
          "columns" : [ {
            "UUID" : "ce15306a-ba4c-4c17-9cdf-a4982ea4a80b",
            "columnKey" : "1",
            "columnName" : "Column 1",
            "columnWidth" : "9",
            "seedComponents" : [ ]
          }, {
            "UUID" : "04ae6e38-05ac-4b71-b9ab-efc88a4bda7a",
            "columnKey" : "ec66d",
            "columnName" : "Column 2",
            "columnWidth" : "3",
            "seedComponents" : [ ]
          } ]
        },
        "sectionHeight" : 100
      },
      "componentName" : "forceCommunity:section",
      "id" : "a28a44d7-5f06-4063-929e-24f9be97ac1a",
      "regions" : [ {
        "components" : [ {
          "componentAttributes" : {
            "richTextValue" : "<h1><span style=\"font-size: 36px;\">Your Orders</span></h1>"
          },
          "componentName" : "forceCommunity:richTextInline",
          "id" : "6a937163-0182-4cd1-9786-cc6ae0caf673",
          "renderPriority" : "NEUTRAL",
          "renditionMap" : { },
          "type" : "component"
        } ],
        "id" : "ce15306a-ba4c-4c17-9cdf-a4982ea4a80b",
        "regionLabel" : "Column 1",
        "regionName" : "1",
        "type" : "region"
      }, {
        "id" : "04ae6e38-05ac-4b71-b9ab-efc88a4bda7a",
        "regionLabel" : "Column 2",
        "regionName" : "ec66d",
        "type" : "region"
      } ],
      "renderPriority" : "NEUTRAL",
      "renditionMap" : { },
      "type" : "component"
    }, {
      "componentAttributes" : {
        "background" : "background: rgba(255,255,255,0.7)",
        "backgroundOverlay" : "rgba(0,0,0,0.5)",
        "contentAreaWidth" : 100,
        "sectionConfig" : {
          "UUID" : "74b21df9-ef24-4fb9-9164-c57f84902870",
          "columns" : [ {
            "UUID" : "dd6f24d7-56e9-452b-8570-f644ed187482",
            "columnKey" : "1",
            "columnName" : "Column 1",
            "columnWidth" : "12",
            "seedComponents" : [ ]
          } ]
        },
        "sectionHeight" : 300
      },
      "componentName" : "forceCommunity:section",
      "id" : "74b21df9-ef24-4fb9-9164-c57f84902870",
      "regions" : [ {
        "components" : [ {
          "componentAttributes" : {
            "childObjectFilter" : "",
            "childObjectOrderBy" : "",
            "childObjectRelationshipLabel" : "",
            "childObjectRelationshipName" : "",
            "childrenLimit" : 10,
            "filter" : "",
            "limit" : 100,
            "objectApiName" : "Order",
            "objectFieldsString" : "OrderNumber, enxB2B__Order_Status__c, enxCPQ__Total_OTC__c, enxCPQ__Total_MRC__c, CreatedDate",
            "orderBy" : "CreatedDate DESC"
          },
          "componentName" : "c:prtGenericListView",
          "id" : "47f282dc-c333-445f-8afc-7e6f962e92d0",
          "renderPriority" : "NEUTRAL",
          "renditionMap" : { },
          "type" : "component"
        } ],
        "id" : "dd6f24d7-56e9-452b-8570-f644ed187482",
        "regionLabel" : "Column 1",
        "regionName" : "1",
        "type" : "region"
      } ],
      "renderPriority" : "NEUTRAL",
      "renditionMap" : { },
      "type" : "component"
    } ],
    "id" : "e6e62d03-3f7b-410d-82ea-f1ff06501de5",
    "regionName" : "content",
    "type" : "region"
  }, {
    "components" : [ {
      "componentAttributes" : {
        "description" : "",
        "metaTags" : "",
        "title" : "Orders"
      },
      "componentName" : "forceCommunity:seoAssistant",
      "id" : "73a4cc44-b4f5-49d9-b3bd-f89eb45782cb",
      "renderPriority" : "NEUTRAL",
      "renditionMap" : { },
      "type" : "component"
    } ],
    "id" : "7b8a1627-2179-4f82-b97a-7e9d2bcbe5b6",
    "regionName" : "sfdcHiddenRegion",
    "type" : "region"
  } ],
  "themeLayoutType" : "o5wtm4zhtsfOTyAB8WiuLxYSJtPjbg",
  "type" : "view",
  "viewType" : "custom-Orders"
}