{
  "appPageId" : "71671717-db06-4bf5-9a4e-998f6bccbe5e",
  "componentName" : "siteforce:dynamicLayout",
  "id" : "2ed85065-2311-4bc9-bf44-e2e901c84fb4",
  "label" : "Place Order",
  "regions" : [ {
    "components" : [ {
      "componentAttributes" : {
        "background" : "background: rgba(0,0,0,0)",
        "backgroundOverlay" : "rgba(0,0,0,0.5)",
        "contentAreaWidth" : 100,
        "sectionConfig" : {
          "UUID" : "83610106-c1d4-4edd-ba1a-ef5d49da2657",
          "columns" : [ {
            "UUID" : "0410d438-8e60-4d40-b32d-4e2e73b03965",
            "columnKey" : "1",
            "columnName" : "Column 1",
            "columnWidth" : "12",
            "seedComponents" : [ ]
          } ]
        },
        "sectionHeight" : 300
      },
      "componentName" : "forceCommunity:section",
      "id" : "83610106-c1d4-4edd-ba1a-ef5d49da2657",
      "regions" : [ {
        "components" : [ {
          "componentAttributes" : {
            "richTextValue" : "<p style=\"text-align: center;\"><span style=\"font-size: 36px;\">Checkout</span></p><p style=\"text-align: center;\"><span style=\"font-size: 20px;\">Place Order</span></p>"
          },
          "componentName" : "forceCommunity:richTextInline",
          "id" : "516c56d2-d2e3-4ffd-a4f7-8de807657c3b",
          "renderPriority" : "NEUTRAL",
          "renditionMap" : { },
          "type" : "component"
        }, {
          "componentAttributes" : {
            "flowArguments" : "[{\"label\":\"cartId\",\"dataType\":\"String\",\"supportsRecordId\":false,\"value\":\"{!cartId}\"}]",
            "flowLayout" : "oneColumn",
            "flowName" : "Cart_Order"
          },
          "componentName" : "forceCommunity:flowCommunity",
          "id" : "24805de1-865c-4149-9dcd-0d950f219997",
          "renderPriority" : "NEUTRAL",
          "renditionMap" : { },
          "type" : "component"
        } ],
        "id" : "0410d438-8e60-4d40-b32d-4e2e73b03965",
        "regionLabel" : "Column 1",
        "regionName" : "1",
        "type" : "region"
      } ],
      "renderPriority" : "NEUTRAL",
      "renditionMap" : { },
      "type" : "component"
    } ],
    "id" : "529e617f-094b-455e-a839-7bbb0931f873",
    "regionName" : "content",
    "type" : "region"
  }, {
    "components" : [ {
      "componentAttributes" : {
        "description" : "",
        "metaTags" : "",
        "title" : "Place Order"
      },
      "componentName" : "forceCommunity:seoAssistant",
      "id" : "e5954be4-8e5c-4ed3-bc10-d27dbb6b0a6a",
      "renderPriority" : "NEUTRAL",
      "renditionMap" : { },
      "type" : "component"
    } ],
    "id" : "44c076a6-9220-4a85-8787-bc6befa6c547",
    "regionName" : "sfdcHiddenRegion",
    "type" : "region"
  } ],
  "themeLayoutType" : "o5wtm4zhtsfOTyAB8WiuLxYSJtPjbg",
  "type" : "view",
  "viewType" : "custom-place-order"
}