{
  "appPageId" : "71671717-db06-4bf5-9a4e-998f6bccbe5e",
  "componentName" : "siteforce:sldsOneColLayout",
  "id" : "04f67ff8-f785-43a1-b77e-81429ecd19a4",
  "label" : "Record List",
  "regions" : [ {
    "id" : "e4a94178-485f-45b5-a4ff-030076e2ed63",
    "regionName" : "header",
    "type" : "region"
  }, {
    "components" : [ {
      "componentAttributes" : {
        "enableInlineEdit" : true,
        "filterName" : "{!filterId}",
        "layout" : "FULL",
        "pageSize" : 25,
        "scope" : "{!objectName}",
        "showActionBar" : true,
        "showChartsPanel" : true,
        "showDisplay" : "showall",
        "showFilterPanel" : true,
        "showImageIcon" : true,
        "showManualRefreshButton" : true,
        "showObjectName" : true,
        "showPinnedList" : true,
        "showSearchBar" : true
      },
      "componentName" : "forceCommunity:objectHome",
      "id" : "21bf5b5a-bb96-455d-9104-70e6857ac30e",
      "renderPriority" : "NEUTRAL",
      "renditionMap" : { },
      "type" : "component"
    } ],
    "id" : "08f79275-ba1e-4e1f-a596-2ed60e3e32e1",
    "regionName" : "content",
    "type" : "region"
  }, {
    "id" : "2f305c91-64ba-4aab-9263-cd11ea82aa92",
    "regionName" : "footer",
    "type" : "region"
  } ],
  "themeLayoutType" : "Inner",
  "type" : "view",
  "viewType" : "list"
}